properties{
  x = 3584,
  y = 3584,
  width = 512,
  height = 512,
  min_layer = 0,
  max_layer = 2,
  world = "Light World",
  tileset = "out/outside_darkworld_main",
  music = "dark_world",
}

tile{
  layer = 0,
  x = 120,
  y = 72,
  width = 48,
  height = 200,
  pattern = "112",
}

tile{
  layer = 0,
  x = 88,
  y = 120,
  width = 48,
  height = 176,
  pattern = "112",
}

tile{
  layer = 0,
  x = 168,
  y = 216,
  width = 136,
  height = 24,
  pattern = "112",
}

tile{
  layer = 0,
  x = 168,
  y = 184,
  width = 56,
  height = 32,
  pattern = "112",
}

tile{
  layer = 0,
  x = 168,
  y = 152,
  width = 32,
  height = 32,
  pattern = "112",
}

tile{
  layer = 0,
  x = 32,
  y = 264,
  width = 88,
  height = 80,
  pattern = "112",
}

tile{
  layer = 0,
  x = 56,
  y = 232,
  width = 32,
  height = 32,
  pattern = "112",
}

tile{
  layer = 0,
  x = 0,
  y = 296,
  width = 32,
  height = 48,
  pattern = "112",
}

tile{
  layer = 0,
  x = 104,
  y = 0,
  width = 80,
  height = 40,
  pattern = "112",
}

tile{
  layer = 0,
  x = 0,
  y = 344,
  width = 112,
  height = 8,
  pattern = "1340",
}

tile{
  layer = 0,
  x = 176,
  y = 248,
  width = 128,
  height = 8,
  pattern = "1340",
}

tile{
  layer = 0,
  x = 240,
  y = 208,
  width = 64,
  height = 8,
  pattern = "1340",
}

tile{
  layer = 0,
  x = 184,
  y = 0,
  width = 8,
  height = 32,
  pattern = "1340",
}

tile{
  layer = 0,
  x = 96,
  y = 0,
  width = 8,
  height = 32,
  pattern = "1340",
}

tile{
  layer = 0,
  x = 112,
  y = 80,
  width = 8,
  height = 32,
  pattern = "1340",
}

tile{
  layer = 0,
  x = 168,
  y = 80,
  width = 8,
  height = 64,
  pattern = "1340",
}

tile{
  layer = 0,
  x = 312,
  y = 224,
  width = 8,
  height = 16,
  pattern = "1340",
}

tile{
  layer = 0,
  x = 80,
  y = 144,
  width = 8,
  height = 80,
  pattern = "1340",
}

tile{
  layer = 0,
  x = 120,
  y = 304,
  width = 8,
  height = 32,
  pattern = "1340",
}

tile{
  layer = 0,
  x = 0,
  y = 288,
  width = 16,
  height = 8,
  pattern = "1340",
}

tile{
  layer = 0,
  x = 112,
  y = 336,
  width = 16,
  height = 16,
  pattern = "988",
}

tile{
  layer = 0,
  x = 144,
  y = 272,
  width = 16,
  height = 16,
  pattern = "988",
}

tile{
  layer = 0,
  x = 160,
  y = 256,
  width = 16,
  height = 16,
  pattern = "988",
}

tile{
  layer = 0,
  x = 128,
  y = 288,
  width = 16,
  height = 16,
  pattern = "988",
}

tile{
  layer = 0,
  x = 304,
  y = 240,
  width = 16,
  height = 16,
  pattern = "988",
}

tile{
  layer = 0,
  x = 64,
  y = 224,
  width = 16,
  height = 16,
  pattern = "962",
}

tile{
  layer = 0,
  x = 96,
  y = 112,
  width = 16,
  height = 16,
  pattern = "962",
}

tile{
  layer = 0,
  x = 80,
  y = 128,
  width = 16,
  height = 16,
  pattern = "962",
}

tile{
  layer = 0,
  x = 224,
  y = 192,
  width = 16,
  height = 16,
  pattern = "963",
}

tile{
  layer = 0,
  x = 304,
  y = 208,
  width = 16,
  height = 16,
  pattern = "963",
}

tile{
  layer = 0,
  x = 176,
  y = 144,
  width = 16,
  height = 16,
  pattern = "963",
}

tile{
  layer = 0,
  x = 192,
  y = 160,
  width = 16,
  height = 16,
  pattern = "963",
}

tile{
  layer = 0,
  x = 208,
  y = 176,
  width = 16,
  height = 16,
  pattern = "963",
}

tile{
  layer = 0,
  x = 48,
  y = 240,
  width = 16,
  height = 16,
  pattern = "962",
}

tile{
  layer = 0,
  x = 32,
  y = 256,
  width = 16,
  height = 16,
  pattern = "962",
}

tile{
  layer = 0,
  x = 16,
  y = 272,
  width = 16,
  height = 16,
  pattern = "962",
}

tile{
  layer = 0,
  x = 304,
  y = 224,
  width = 16,
  height = 16,
  pattern = "921",
}

tile{
  layer = 0,
  x = 160,
  y = 80,
  width = 16,
  height = 64,
  pattern = "921",
}

tile{
  layer = 0,
  x = 176,
  y = 0,
  width = 16,
  height = 32,
  pattern = "921",
}

tile{
  layer = 0,
  x = 0,
  y = 336,
  width = 112,
  height = 16,
  pattern = "919",
}

tile{
  layer = 0,
  x = 176,
  y = 240,
  width = 128,
  height = 16,
  pattern = "919",
}

tile{
  layer = 0,
  x = 112,
  y = 304,
  width = 16,
  height = 32,
  pattern = "921",
}

tile{
  layer = 0,
  x = 0,
  y = 288,
  width = 16,
  height = 16,
  pattern = "918",
}

tile{
  layer = 0,
  x = 240,
  y = 208,
  width = 64,
  height = 16,
  pattern = "918",
}

tile{
  layer = 0,
  x = 192,
  y = 160,
  width = 16,
  height = 16,
  pattern = "922",
}

tile{
  layer = 0,
  x = 208,
  y = 176,
  width = 16,
  height = 16,
  pattern = "922",
}

tile{
  layer = 0,
  x = 224,
  y = 192,
  width = 16,
  height = 16,
  pattern = "922",
}

tile{
  layer = 0,
  x = 176,
  y = 144,
  width = 16,
  height = 16,
  pattern = "922",
}

tile{
  layer = 0,
  x = 96,
  y = 0,
  width = 16,
  height = 32,
  pattern = "920",
}

tile{
  layer = 0,
  x = 112,
  y = 80,
  width = 16,
  height = 32,
  pattern = "920",
}

tile{
  layer = 0,
  x = 80,
  y = 144,
  width = 16,
  height = 80,
  pattern = "920",
}

tile{
  layer = 0,
  x = 176,
  y = 160,
  width = 16,
  height = 16,
  pattern = "923",
}

tile{
  layer = 0,
  x = 192,
  y = 176,
  width = 16,
  height = 16,
  pattern = "923",
}

tile{
  layer = 0,
  x = 208,
  y = 192,
  width = 16,
  height = 16,
  pattern = "923",
}

tile{
  layer = 0,
  x = 224,
  y = 208,
  width = 16,
  height = 16,
  pattern = "923",
}

tile{
  layer = 0,
  x = 160,
  y = 144,
  width = 16,
  height = 16,
  pattern = "923",
}

tile{
  layer = 0,
  x = 144,
  y = 256,
  width = 16,
  height = 16,
  pattern = "928",
}

tile{
  layer = 0,
  x = 144,
  y = 272,
  width = 16,
  height = 16,
  pattern = "929",
}

tile{
  layer = 0,
  x = 160,
  y = 240,
  width = 16,
  height = 16,
  pattern = "928",
}

tile{
  layer = 0,
  x = 160,
  y = 256,
  width = 16,
  height = 16,
  pattern = "929",
}

tile{
  layer = 0,
  x = 112,
  y = 288,
  width = 16,
  height = 16,
  pattern = "928",
}

tile{
  layer = 0,
  x = 128,
  y = 272,
  width = 16,
  height = 16,
  pattern = "928",
}

tile{
  layer = 0,
  x = 128,
  y = 288,
  width = 16,
  height = 16,
  pattern = "929",
}

tile{
  layer = 0,
  x = 112,
  y = 336,
  width = 16,
  height = 16,
  pattern = "929",
}

tile{
  layer = 0,
  x = 304,
  y = 240,
  width = 16,
  height = 16,
  pattern = "929",
}

tile{
  layer = 0,
  x = 64,
  y = 224,
  width = 16,
  height = 16,
  pattern = "924",
}

tile{
  layer = 0,
  x = 48,
  y = 240,
  width = 16,
  height = 16,
  pattern = "924",
}

tile{
  layer = 0,
  x = 48,
  y = 256,
  width = 16,
  height = 16,
  pattern = "925",
}

tile{
  layer = 0,
  x = 64,
  y = 240,
  width = 16,
  height = 16,
  pattern = "925",
}

tile{
  layer = 0,
  x = 32,
  y = 256,
  width = 16,
  height = 16,
  pattern = "924",
}

tile{
  layer = 0,
  x = 80,
  y = 224,
  width = 16,
  height = 16,
  pattern = "925",
}

tile{
  layer = 0,
  x = 32,
  y = 272,
  width = 16,
  height = 16,
  pattern = "925",
}

tile{
  layer = 0,
  x = 16,
  y = 272,
  width = 16,
  height = 16,
  pattern = "924",
}

tile{
  layer = 0,
  x = 16,
  y = 288,
  width = 16,
  height = 16,
  pattern = "925",
}

tile{
  layer = 0,
  x = 112,
  y = 112,
  width = 16,
  height = 16,
  pattern = "925",
}

tile{
  layer = 0,
  x = 96,
  y = 112,
  width = 16,
  height = 16,
  pattern = "924",
}

tile{
  layer = 0,
  x = 96,
  y = 128,
  width = 16,
  height = 16,
  pattern = "925",
}

tile{
  layer = 0,
  x = 80,
  y = 128,
  width = 16,
  height = 16,
  pattern = "924",
}

tile{
  layer = 0,
  x = 112,
  y = 64,
  width = 64,
  height = 16,
  pattern = "942",
}

tile{
  layer = 0,
  x = 48,
  y = 312,
  width = 8,
  height = 8,
  pattern = "915",
}

tile{
  layer = 0,
  x = 48,
  y = 280,
  width = 8,
  height = 8,
  pattern = "915",
}

tile{
  layer = 0,
  x = 80,
  y = 280,
  width = 8,
  height = 8,
  pattern = "915",
}

tile{
  layer = 0,
  x = 80,
  y = 296,
  width = 8,
  height = 8,
  pattern = "915",
}

tile{
  layer = 0,
  x = 128,
  y = 216,
  width = 8,
  height = 8,
  pattern = "915",
}

tile{
  layer = 0,
  x = 160,
  y = 200,
  width = 8,
  height = 8,
  pattern = "915",
}

tile{
  layer = 0,
  x = 112,
  y = 184,
  width = 8,
  height = 8,
  pattern = "915",
}

tile{
  layer = 0,
  x = 144,
  y = 152,
  width = 8,
  height = 8,
  pattern = "915",
}

tile{
  layer = 0,
  x = 152,
  y = 0,
  width = 16,
  height = 16,
  pattern = "913",
}

tile{
  layer = 0,
  x = 168,
  y = 8,
  width = 16,
  height = 16,
  pattern = "913",
}

tile{
  layer = 0,
  x = 104,
  y = 0,
  width = 16,
  height = 16,
  pattern = "913",
}

tile{
  layer = 0,
  x = 104,
  y = 16,
  width = 16,
  height = 16,
  pattern = "913",
}

tile{
  layer = 0,
  x = 304,
  y = 208,
  width = 16,
  height = 16,
  pattern = "922",
}

tile{
  layer = 0,
  x = 112,
  y = 48,
  width = 64,
  height = 16,
  pattern = "941",
}

tile{
  layer = 0,
  x = 112,
  y = 32,
  width = 64,
  height = 16,
  pattern = "940",
}

tile{
  layer = 0,
  x = 104,
  y = 0,
  width = 16,
  height = 16,
  pattern = "1039",
}

tile{
  layer = 0,
  x = 104,
  y = 16,
  width = 16,
  height = 16,
  pattern = "1039",
}

tile{
  layer = 0,
  x = 168,
  y = 8,
  width = 16,
  height = 16,
  pattern = "1039",
}

tile{
  layer = 0,
  x = 152,
  y = 0,
  width = 16,
  height = 16,
  pattern = "1039",
}

tile{
  layer = 0,
  x = 0,
  y = 376,
  width = 368,
  height = 120,
  pattern = "129",
}

tile{
  layer = 0,
  x = 368,
  y = 0,
  width = 104,
  height = 440,
  pattern = "129",
}

tile{
  layer = 0,
  x = 160,
  y = 296,
  width = 208,
  height = 80,
  pattern = "129",
}

tile{
  layer = 0,
  x = 224,
  y = 344,
  width = 56,
  height = 8,
  pattern = "13892",
}

tile{
  layer = 0,
  x = 240,
  y = 328,
  width = 64,
  height = 16,
  pattern = "13892",
}

tile{
  layer = 0,
  x = 240,
  y = 392,
  width = 32,
  height = 16,
  pattern = "13892",
}

tile{
  layer = 0,
  x = 216,
  y = 352,
  width = 48,
  height = 32,
  pattern = "13892",
}

tile{
  layer = 0,
  x = 264,
  y = 352,
  width = 8,
  height = 8,
  pattern = "13892",
}

tile{
  layer = 0,
  x = 224,
  y = 384,
  width = 40,
  height = 8,
  pattern = "13892",
}

tile{
  layer = 0,
  x = 232,
  y = 336,
  width = 8,
  height = 64,
  pattern = "13892",
}

tile{
  layer = 0,
  x = 136,
  y = 352,
  width = 24,
  height = 24,
  pattern = "129",
}

tile{
  layer = 0,
  x = 336,
  y = 248,
  width = 32,
  height = 48,
  pattern = "129",
}

tile{
  layer = 0,
  x = 184,
  y = 272,
  width = 152,
  height = 24,
  pattern = "129",
}

tile{
  layer = 0,
  x = 224,
  y = 0,
  width = 144,
  height = 136,
  pattern = "129",
}

tile{
  layer = 0,
  x = 208,
  y = 0,
  width = 16,
  height = 112,
  pattern = "129",
}

tile{
  layer = 0,
  x = 344,
  y = 136,
  width = 24,
  height = 48,
  pattern = "129",
}

tile{
  layer = 0,
  x = 328,
  y = 136,
  width = 16,
  height = 32,
  pattern = "129",
}

tile{
  layer = 0,
  x = 312,
  y = 136,
  width = 16,
  height = 16,
  pattern = "129",
}

tile{
  layer = 0,
  x = 360,
  y = 184,
  width = 8,
  height = 64,
  pattern = "129",
}

tile{
  layer = 0,
  x = 312,
  y = 328,
  width = 8,
  height = 8,
  pattern = "117",
}

tile{
  layer = 0,
  x = 312,
  y = 336,
  width = 8,
  height = 8,
  pattern = "114",
}

tile{
  layer = 0,
  x = 304,
  y = 336,
  width = 8,
  height = 8,
  pattern = "120",
}

tile{
  layer = 0,
  x = 304,
  y = 328,
  width = 8,
  height = 8,
  pattern = "122",
}

tile{
  layer = 0,
  x = 240,
  y = 320,
  width = 64,
  height = 8,
  pattern = "123",
}

tile{
  layer = 0,
  x = 288,
  y = 344,
  width = 16,
  height = 8,
  pattern = "119",
}

tile{
  layer = 0,
  x = 208,
  y = 352,
  width = 8,
  height = 32,
  pattern = "125",
}

tile{
  layer = 0,
  x = 264,
  y = 368,
  width = 8,
  height = 16,
  pattern = "121",
}

tile{
  layer = 0,
  x = 240,
  y = 408,
  width = 32,
  height = 8,
  pattern = "119",
}

tile{
  layer = 0,
  x = 232,
  y = 320,
  width = 8,
  height = 8,
  pattern = "116",
}

tile{
  layer = 0,
  x = 304,
  y = 320,
  width = 8,
  height = 8,
  pattern = "117",
}

tile{
  layer = 0,
  x = 224,
  y = 328,
  width = 8,
  height = 8,
  pattern = "116",
}

tile{
  layer = 0,
  x = 232,
  y = 328,
  width = 8,
  height = 8,
  pattern = "124",
}

tile{
  layer = 0,
  x = 216,
  y = 336,
  width = 8,
  height = 8,
  pattern = "116",
}

tile{
  layer = 0,
  x = 224,
  y = 336,
  width = 8,
  height = 8,
  pattern = "124",
}

tile{
  layer = 0,
  x = 208,
  y = 344,
  width = 8,
  height = 8,
  pattern = "116",
}

tile{
  layer = 0,
  x = 216,
  y = 344,
  width = 8,
  height = 8,
  pattern = "124",
}

tile{
  layer = 0,
  x = 304,
  y = 344,
  width = 8,
  height = 8,
  pattern = "114",
}

tile{
  layer = 0,
  x = 264,
  y = 360,
  width = 8,
  height = 8,
  pattern = "120",
}

tile{
  layer = 0,
  x = 272,
  y = 360,
  width = 8,
  height = 8,
  pattern = "114",
}

tile{
  layer = 0,
  x = 208,
  y = 384,
  width = 8,
  height = 8,
  pattern = "115",
}

tile{
  layer = 0,
  x = 216,
  y = 384,
  width = 8,
  height = 8,
  pattern = "118",
}

tile{
  layer = 0,
  x = 264,
  y = 384,
  width = 8,
  height = 8,
  pattern = "122",
}

tile{
  layer = 0,
  x = 216,
  y = 392,
  width = 8,
  height = 8,
  pattern = "115",
}

tile{
  layer = 0,
  x = 224,
  y = 392,
  width = 8,
  height = 8,
  pattern = "118",
}

tile{
  layer = 0,
  x = 224,
  y = 400,
  width = 8,
  height = 8,
  pattern = "115",
}

tile{
  layer = 0,
  x = 232,
  y = 400,
  width = 8,
  height = 8,
  pattern = "118",
}

tile{
  layer = 0,
  x = 232,
  y = 408,
  width = 8,
  height = 8,
  pattern = "115",
}

tile{
  layer = 0,
  x = 80,
  y = 384,
  width = 8,
  height = 8,
  pattern = "101",
}

tile{
  layer = 0,
  x = 0,
  y = 424,
  width = 8,
  height = 8,
  pattern = "101",
}

tile{
  layer = 0,
  x = 8,
  y = 424,
  width = 8,
  height = 8,
  pattern = "100",
}

tile{
  layer = 0,
  x = 16,
  y = 424,
  width = 8,
  height = 8,
  pattern = "101",
}

tile{
  layer = 0,
  x = 16,
  y = 416,
  width = 8,
  height = 8,
  pattern = "100",
}

tile{
  layer = 0,
  x = 24,
  y = 416,
  width = 8,
  height = 8,
  pattern = "101",
}

tile{
  layer = 0,
  x = 0,
  y = 416,
  width = 8,
  height = 8,
  pattern = "100",
}

tile{
  layer = 0,
  x = 8,
  y = 416,
  width = 8,
  height = 8,
  pattern = "101",
}

tile{
  layer = 0,
  x = 0,
  y = 408,
  width = 8,
  height = 8,
  pattern = "101",
}

tile{
  layer = 0,
  x = 56,
  y = 408,
  width = 8,
  height = 8,
  pattern = "100",
}

tile{
  layer = 0,
  x = 64,
  y = 408,
  width = 8,
  height = 8,
  pattern = "101",
}

tile{
  layer = 0,
  x = 40,
  y = 408,
  width = 8,
  height = 8,
  pattern = "100",
}

tile{
  layer = 0,
  x = 48,
  y = 408,
  width = 8,
  height = 8,
  pattern = "101",
}

tile{
  layer = 0,
  x = 24,
  y = 408,
  width = 8,
  height = 8,
  pattern = "100",
}

tile{
  layer = 0,
  x = 32,
  y = 408,
  width = 8,
  height = 8,
  pattern = "101",
}

tile{
  layer = 0,
  x = 8,
  y = 408,
  width = 8,
  height = 8,
  pattern = "100",
}

tile{
  layer = 0,
  x = 16,
  y = 408,
  width = 8,
  height = 8,
  pattern = "101",
}

tile{
  layer = 0,
  x = 8,
  y = 392,
  width = 8,
  height = 8,
  pattern = "100",
}

tile{
  layer = 0,
  x = 16,
  y = 392,
  width = 8,
  height = 8,
  pattern = "101",
}

tile{
  layer = 0,
  x = 0,
  y = 392,
  width = 8,
  height = 8,
  pattern = "101",
}

tile{
  layer = 0,
  x = 0,
  y = 384,
  width = 8,
  height = 8,
  pattern = "100",
}

tile{
  layer = 0,
  x = 8,
  y = 384,
  width = 8,
  height = 8,
  pattern = "101",
}

tile{
  layer = 0,
  x = 56,
  y = 392,
  width = 8,
  height = 8,
  pattern = "100",
}

tile{
  layer = 0,
  x = 64,
  y = 392,
  width = 8,
  height = 8,
  pattern = "101",
}

tile{
  layer = 0,
  x = 40,
  y = 392,
  width = 8,
  height = 8,
  pattern = "100",
}

tile{
  layer = 0,
  x = 48,
  y = 392,
  width = 8,
  height = 8,
  pattern = "101",
}

tile{
  layer = 0,
  x = 24,
  y = 392,
  width = 8,
  height = 8,
  pattern = "100",
}

tile{
  layer = 0,
  x = 32,
  y = 392,
  width = 8,
  height = 8,
  pattern = "101",
}

tile{
  layer = 0,
  x = 16,
  y = 384,
  width = 8,
  height = 8,
  pattern = "100",
}

tile{
  layer = 0,
  x = 24,
  y = 384,
  width = 8,
  height = 8,
  pattern = "101",
}

tile{
  layer = 0,
  x = 48,
  y = 384,
  width = 8,
  height = 8,
  pattern = "100",
}

tile{
  layer = 0,
  x = 56,
  y = 384,
  width = 8,
  height = 8,
  pattern = "101",
}

tile{
  layer = 0,
  x = 32,
  y = 384,
  width = 8,
  height = 8,
  pattern = "100",
}

tile{
  layer = 0,
  x = 40,
  y = 384,
  width = 8,
  height = 8,
  pattern = "101",
}

tile{
  layer = 0,
  x = 88,
  y = 408,
  width = 8,
  height = 8,
  pattern = "100",
}

tile{
  layer = 0,
  x = 80,
  y = 408,
  width = 8,
  height = 8,
  pattern = "101",
}

tile{
  layer = 0,
  x = 16,
  y = 400,
  width = 8,
  height = 8,
  pattern = "100",
}

tile{
  layer = 0,
  x = 24,
  y = 400,
  width = 8,
  height = 8,
  pattern = "101",
}

tile{
  layer = 0,
  x = 80,
  y = 400,
  width = 8,
  height = 8,
  pattern = "100",
}

tile{
  layer = 0,
  x = 88,
  y = 400,
  width = 8,
  height = 8,
  pattern = "101",
}

tile{
  layer = 0,
  x = 64,
  y = 400,
  width = 8,
  height = 8,
  pattern = "100",
}

tile{
  layer = 0,
  x = 72,
  y = 400,
  width = 8,
  height = 8,
  pattern = "101",
}

tile{
  layer = 0,
  x = 48,
  y = 400,
  width = 8,
  height = 8,
  pattern = "100",
}

tile{
  layer = 0,
  x = 56,
  y = 400,
  width = 8,
  height = 8,
  pattern = "101",
}

tile{
  layer = 0,
  x = 32,
  y = 400,
  width = 8,
  height = 8,
  pattern = "100",
}

tile{
  layer = 0,
  x = 40,
  y = 400,
  width = 8,
  height = 8,
  pattern = "101",
}

tile{
  layer = 0,
  x = 80,
  y = 392,
  width = 8,
  height = 8,
  pattern = "100",
}

tile{
  layer = 0,
  x = 88,
  y = 392,
  width = 8,
  height = 8,
  pattern = "101",
}

tile{
  layer = 0,
  x = 64,
  y = 384,
  width = 8,
  height = 8,
  pattern = "100",
}

tile{
  layer = 0,
  x = 72,
  y = 384,
  width = 8,
  height = 8,
  pattern = "101",
}

tile{
  layer = 0,
  x = 0,
  y = 400,
  width = 8,
  height = 8,
  pattern = "100",
}

tile{
  layer = 0,
  x = 8,
  y = 400,
  width = 8,
  height = 8,
  pattern = "101",
}

tile{
  layer = 0,
  x = 64,
  y = 416,
  width = 8,
  height = 8,
  pattern = "100",
}

tile{
  layer = 0,
  x = 72,
  y = 416,
  width = 8,
  height = 8,
  pattern = "101",
}

tile{
  layer = 0,
  x = 80,
  y = 416,
  width = 8,
  height = 8,
  pattern = "100",
}

tile{
  layer = 0,
  x = 88,
  y = 416,
  width = 8,
  height = 8,
  pattern = "101",
}

tile{
  layer = 0,
  x = 72,
  y = 424,
  width = 8,
  height = 8,
  pattern = "100",
}

tile{
  layer = 0,
  x = 80,
  y = 424,
  width = 8,
  height = 8,
  pattern = "101",
}

tile{
  layer = 0,
  x = 72,
  y = 408,
  width = 8,
  height = 8,
  pattern = "100",
}

tile{
  layer = 0,
  x = 72,
  y = 392,
  width = 8,
  height = 8,
  pattern = "100",
}

tile{
  layer = 0,
  x = 64,
  y = 424,
  width = 8,
  height = 8,
  pattern = "101",
}

tile{
  layer = 0,
  x = 280,
  y = 392,
  width = 8,
  height = 8,
  pattern = "117",
}

tile{
  layer = 0,
  x = 280,
  y = 400,
  width = 8,
  height = 8,
  pattern = "114",
}

tile{
  layer = 0,
  x = 272,
  y = 400,
  width = 8,
  height = 8,
  pattern = "120",
}

tile{
  layer = 0,
  x = 272,
  y = 392,
  width = 8,
  height = 8,
  pattern = "122",
}

tile{
  layer = 0,
  x = 272,
  y = 384,
  width = 8,
  height = 8,
  pattern = "117",
}

tile{
  layer = 0,
  x = 272,
  y = 408,
  width = 8,
  height = 8,
  pattern = "114",
}

tile{
  layer = 0,
  x = 272,
  y = 352,
  width = 8,
  height = 8,
  pattern = "120",
}

tile{
  layer = 0,
  x = 280,
  y = 352,
  width = 8,
  height = 8,
  pattern = "114",
}

tile{
  layer = 0,
  x = 280,
  y = 344,
  width = 8,
  height = 8,
  pattern = "120",
}

tile{
  layer = 0,
  x = 352,
  y = 360,
  width = 8,
  height = 8,
  pattern = "100",
}

tile{
  layer = 0,
  x = 360,
  y = 360,
  width = 8,
  height = 8,
  pattern = "101",
}

tile{
  layer = 0,
  x = 352,
  y = 296,
  width = 8,
  height = 8,
  pattern = "100",
}

tile{
  layer = 0,
  x = 360,
  y = 296,
  width = 8,
  height = 8,
  pattern = "101",
}

tile{
  layer = 0,
  x = 384,
  y = 216,
  width = 8,
  height = 8,
  pattern = "100",
}

tile{
  layer = 0,
  x = 392,
  y = 216,
  width = 8,
  height = 8,
  pattern = "101",
}

tile{
  layer = 0,
  x = 416,
  y = 24,
  width = 8,
  height = 8,
  pattern = "100",
}

tile{
  layer = 0,
  x = 424,
  y = 24,
  width = 8,
  height = 8,
  pattern = "101",
}

tile{
  layer = 0,
  x = 240,
  y = 40,
  width = 8,
  height = 8,
  pattern = "100",
}

tile{
  layer = 0,
  x = 248,
  y = 40,
  width = 8,
  height = 8,
  pattern = "101",
}

tile{
  layer = 0,
  x = 320,
  y = 32,
  width = 8,
  height = 8,
  pattern = "100",
}

tile{
  layer = 0,
  x = 328,
  y = 32,
  width = 8,
  height = 8,
  pattern = "101",
}

tile{
  layer = 0,
  x = 304,
  y = 32,
  width = 8,
  height = 8,
  pattern = "100",
}

tile{
  layer = 0,
  x = 312,
  y = 32,
  width = 8,
  height = 8,
  pattern = "101",
}

tile{
  layer = 0,
  x = 288,
  y = 32,
  width = 8,
  height = 8,
  pattern = "100",
}

tile{
  layer = 0,
  x = 296,
  y = 32,
  width = 8,
  height = 8,
  pattern = "101",
}

tile{
  layer = 0,
  x = 272,
  y = 32,
  width = 8,
  height = 8,
  pattern = "100",
}

tile{
  layer = 0,
  x = 280,
  y = 32,
  width = 8,
  height = 8,
  pattern = "101",
}

tile{
  layer = 0,
  x = 296,
  y = 24,
  width = 8,
  height = 8,
  pattern = "100",
}

tile{
  layer = 0,
  x = 304,
  y = 24,
  width = 8,
  height = 8,
  pattern = "101",
}

tile{
  layer = 0,
  x = 280,
  y = 24,
  width = 8,
  height = 8,
  pattern = "100",
}

tile{
  layer = 0,
  x = 288,
  y = 24,
  width = 8,
  height = 8,
  pattern = "101",
}

tile{
  layer = 0,
  x = 272,
  y = 24,
  width = 8,
  height = 8,
  pattern = "101",
}

tile{
  layer = 0,
  x = 328,
  y = 24,
  width = 8,
  height = 8,
  pattern = "100",
}

tile{
  layer = 0,
  x = 312,
  y = 24,
  width = 8,
  height = 8,
  pattern = "100",
}

tile{
  layer = 0,
  x = 320,
  y = 24,
  width = 8,
  height = 8,
  pattern = "101",
}

tile{
  layer = 0,
  x = 288,
  y = 16,
  width = 8,
  height = 8,
  pattern = "100",
}

tile{
  layer = 0,
  x = 296,
  y = 16,
  width = 8,
  height = 8,
  pattern = "101",
}

tile{
  layer = 0,
  x = 272,
  y = 16,
  width = 8,
  height = 8,
  pattern = "100",
}

tile{
  layer = 0,
  x = 280,
  y = 16,
  width = 8,
  height = 8,
  pattern = "101",
}

tile{
  layer = 0,
  x = 312,
  y = 8,
  width = 8,
  height = 8,
  pattern = "100",
}

tile{
  layer = 0,
  x = 320,
  y = 8,
  width = 8,
  height = 8,
  pattern = "101",
}

tile{
  layer = 0,
  x = 296,
  y = 8,
  width = 8,
  height = 8,
  pattern = "100",
}

tile{
  layer = 0,
  x = 304,
  y = 8,
  width = 8,
  height = 8,
  pattern = "101",
}

tile{
  layer = 0,
  x = 280,
  y = 8,
  width = 8,
  height = 8,
  pattern = "100",
}

tile{
  layer = 0,
  x = 288,
  y = 8,
  width = 8,
  height = 8,
  pattern = "101",
}

tile{
  layer = 0,
  x = 272,
  y = 8,
  width = 8,
  height = 8,
  pattern = "101",
}

tile{
  layer = 0,
  x = 304,
  y = 0,
  width = 8,
  height = 8,
  pattern = "100",
}

tile{
  layer = 0,
  x = 312,
  y = 0,
  width = 8,
  height = 8,
  pattern = "101",
}

tile{
  layer = 0,
  x = 288,
  y = 0,
  width = 8,
  height = 8,
  pattern = "100",
}

tile{
  layer = 0,
  x = 296,
  y = 0,
  width = 8,
  height = 8,
  pattern = "101",
}

tile{
  layer = 0,
  x = 272,
  y = 0,
  width = 8,
  height = 8,
  pattern = "100",
}

tile{
  layer = 0,
  x = 280,
  y = 0,
  width = 8,
  height = 8,
  pattern = "101",
}

tile{
  layer = 0,
  x = 328,
  y = 8,
  width = 8,
  height = 8,
  pattern = "100",
}

tile{
  layer = 0,
  x = 320,
  y = 0,
  width = 8,
  height = 8,
  pattern = "100",
}

tile{
  layer = 0,
  x = 328,
  y = 0,
  width = 8,
  height = 8,
  pattern = "101",
}

tile{
  layer = 0,
  x = 320,
  y = 16,
  width = 8,
  height = 8,
  pattern = "100",
}

tile{
  layer = 0,
  x = 328,
  y = 16,
  width = 8,
  height = 8,
  pattern = "101",
}

tile{
  layer = 0,
  x = 304,
  y = 16,
  width = 8,
  height = 8,
  pattern = "100",
}

tile{
  layer = 0,
  x = 312,
  y = 16,
  width = 8,
  height = 8,
  pattern = "101",
}

tile{
  layer = 0,
  x = 312,
  y = 72,
  width = 8,
  height = 8,
  pattern = "100",
}

tile{
  layer = 0,
  x = 320,
  y = 72,
  width = 8,
  height = 8,
  pattern = "101",
}

tile{
  layer = 0,
  x = 296,
  y = 72,
  width = 8,
  height = 8,
  pattern = "100",
}

tile{
  layer = 0,
  x = 304,
  y = 72,
  width = 8,
  height = 8,
  pattern = "101",
}

tile{
  layer = 0,
  x = 280,
  y = 72,
  width = 8,
  height = 8,
  pattern = "100",
}

tile{
  layer = 0,
  x = 288,
  y = 72,
  width = 8,
  height = 8,
  pattern = "101",
}

tile{
  layer = 0,
  x = 264,
  y = 72,
  width = 8,
  height = 8,
  pattern = "100",
}

tile{
  layer = 0,
  x = 272,
  y = 72,
  width = 8,
  height = 8,
  pattern = "101",
}

tile{
  layer = 0,
  x = 288,
  y = 64,
  width = 8,
  height = 8,
  pattern = "100",
}

tile{
  layer = 0,
  x = 296,
  y = 64,
  width = 8,
  height = 8,
  pattern = "101",
}

tile{
  layer = 0,
  x = 272,
  y = 64,
  width = 8,
  height = 8,
  pattern = "100",
}

tile{
  layer = 0,
  x = 280,
  y = 64,
  width = 8,
  height = 8,
  pattern = "101",
}

tile{
  layer = 0,
  x = 264,
  y = 64,
  width = 8,
  height = 8,
  pattern = "101",
}

tile{
  layer = 0,
  x = 320,
  y = 64,
  width = 8,
  height = 8,
  pattern = "100",
}

tile{
  layer = 0,
  x = 304,
  y = 64,
  width = 8,
  height = 8,
  pattern = "100",
}

tile{
  layer = 0,
  x = 312,
  y = 64,
  width = 8,
  height = 8,
  pattern = "101",
}

tile{
  layer = 0,
  x = 280,
  y = 56,
  width = 8,
  height = 8,
  pattern = "100",
}

tile{
  layer = 0,
  x = 288,
  y = 56,
  width = 8,
  height = 8,
  pattern = "101",
}

tile{
  layer = 0,
  x = 264,
  y = 56,
  width = 8,
  height = 8,
  pattern = "100",
}

tile{
  layer = 0,
  x = 272,
  y = 56,
  width = 8,
  height = 8,
  pattern = "101",
}

tile{
  layer = 0,
  x = 304,
  y = 48,
  width = 8,
  height = 8,
  pattern = "100",
}

tile{
  layer = 0,
  x = 312,
  y = 48,
  width = 8,
  height = 8,
  pattern = "101",
}

tile{
  layer = 0,
  x = 288,
  y = 48,
  width = 8,
  height = 8,
  pattern = "100",
}

tile{
  layer = 0,
  x = 296,
  y = 48,
  width = 8,
  height = 8,
  pattern = "101",
}

tile{
  layer = 0,
  x = 272,
  y = 48,
  width = 8,
  height = 8,
  pattern = "100",
}

tile{
  layer = 0,
  x = 280,
  y = 48,
  width = 8,
  height = 8,
  pattern = "101",
}

tile{
  layer = 0,
  x = 264,
  y = 48,
  width = 8,
  height = 8,
  pattern = "101",
}

tile{
  layer = 0,
  x = 296,
  y = 40,
  width = 8,
  height = 8,
  pattern = "100",
}

tile{
  layer = 0,
  x = 304,
  y = 40,
  width = 8,
  height = 8,
  pattern = "101",
}

tile{
  layer = 0,
  x = 280,
  y = 40,
  width = 8,
  height = 8,
  pattern = "100",
}

tile{
  layer = 0,
  x = 288,
  y = 40,
  width = 8,
  height = 8,
  pattern = "101",
}

tile{
  layer = 0,
  x = 264,
  y = 40,
  width = 8,
  height = 8,
  pattern = "100",
}

tile{
  layer = 0,
  x = 272,
  y = 40,
  width = 8,
  height = 8,
  pattern = "101",
}

tile{
  layer = 0,
  x = 320,
  y = 48,
  width = 8,
  height = 8,
  pattern = "100",
}

tile{
  layer = 0,
  x = 312,
  y = 40,
  width = 8,
  height = 8,
  pattern = "100",
}

tile{
  layer = 0,
  x = 320,
  y = 40,
  width = 8,
  height = 8,
  pattern = "101",
}

tile{
  layer = 0,
  x = 312,
  y = 56,
  width = 8,
  height = 8,
  pattern = "100",
}

tile{
  layer = 0,
  x = 320,
  y = 56,
  width = 8,
  height = 8,
  pattern = "101",
}

tile{
  layer = 0,
  x = 296,
  y = 56,
  width = 8,
  height = 8,
  pattern = "100",
}

tile{
  layer = 0,
  x = 304,
  y = 56,
  width = 8,
  height = 8,
  pattern = "101",
}

tile{
  layer = 0,
  x = 368,
  y = 64,
  width = 8,
  height = 8,
  pattern = "100",
}

tile{
  layer = 0,
  x = 376,
  y = 64,
  width = 8,
  height = 8,
  pattern = "101",
}

tile{
  layer = 0,
  x = 376,
  y = 56,
  width = 8,
  height = 8,
  pattern = "100",
}

tile{
  layer = 0,
  x = 368,
  y = 56,
  width = 8,
  height = 8,
  pattern = "101",
}

tile{
  layer = 0,
  x = 352,
  y = 40,
  width = 8,
  height = 8,
  pattern = "101",
}

tile{
  layer = 0,
  x = 360,
  y = 40,
  width = 8,
  height = 8,
  pattern = "100",
}

tile{
  layer = 0,
  x = 352,
  y = 32,
  width = 8,
  height = 8,
  pattern = "100",
}

tile{
  layer = 0,
  x = 360,
  y = 32,
  width = 8,
  height = 8,
  pattern = "101",
}

tile{
  layer = 0,
  x = 368,
  y = 48,
  width = 8,
  height = 8,
  pattern = "100",
}

tile{
  layer = 0,
  x = 376,
  y = 48,
  width = 8,
  height = 8,
  pattern = "101",
}

tile{
  layer = 0,
  x = 336,
  y = 40,
  width = 8,
  height = 8,
  pattern = "101",
}

tile{
  layer = 0,
  x = 344,
  y = 40,
  width = 8,
  height = 8,
  pattern = "100",
}

tile{
  layer = 0,
  x = 336,
  y = 24,
  width = 8,
  height = 8,
  pattern = "101",
}

tile{
  layer = 0,
  x = 344,
  y = 24,
  width = 8,
  height = 8,
  pattern = "100",
}

tile{
  layer = 0,
  x = 336,
  y = 0,
  width = 8,
  height = 8,
  pattern = "101",
}

tile{
  layer = 0,
  x = 264,
  y = 0,
  width = 8,
  height = 8,
  pattern = "100",
}

tile{
  layer = 0,
  x = 256,
  y = 80,
  width = 8,
  height = 8,
  pattern = "100",
}

tile{
  layer = 0,
  x = 256,
  y = 72,
  width = 8,
  height = 8,
  pattern = "101",
}

tile{
  layer = 0,
  x = 256,
  y = 64,
  width = 8,
  height = 8,
  pattern = "100",
}

tile{
  layer = 0,
  x = 256,
  y = 56,
  width = 8,
  height = 8,
  pattern = "101",
}

tile{
  layer = 0,
  x = 256,
  y = 48,
  width = 8,
  height = 8,
  pattern = "100",
}

tile{
  layer = 0,
  x = 256,
  y = 32,
  width = 8,
  height = 8,
  pattern = "100",
}

tile{
  layer = 0,
  x = 256,
  y = 24,
  width = 8,
  height = 8,
  pattern = "101",
}

tile{
  layer = 0,
  x = 256,
  y = 16,
  width = 8,
  height = 8,
  pattern = "100",
}

tile{
  layer = 0,
  x = 256,
  y = 40,
  width = 8,
  height = 8,
  pattern = "101",
}

tile{
  layer = 0,
  x = 256,
  y = 8,
  width = 8,
  height = 8,
  pattern = "100",
}

tile{
  layer = 0,
  x = 264,
  y = 88,
  width = 8,
  height = 8,
  pattern = "100",
}

tile{
  layer = 0,
  x = 264,
  y = 80,
  width = 8,
  height = 8,
  pattern = "101",
}

tile{
  layer = 0,
  x = 256,
  y = 88,
  width = 8,
  height = 8,
  pattern = "101",
}

tile{
  layer = 0,
  x = 264,
  y = 8,
  width = 8,
  height = 8,
  pattern = "101",
}

tile{
  layer = 0,
  x = 264,
  y = 32,
  width = 8,
  height = 8,
  pattern = "101",
}

tile{
  layer = 0,
  x = 264,
  y = 16,
  width = 8,
  height = 8,
  pattern = "101",
}

tile{
  layer = 0,
  x = 264,
  y = 24,
  width = 8,
  height = 8,
  pattern = "100",
}

tile{
  layer = 0,
  x = 336,
  y = 16,
  width = 8,
  height = 8,
  pattern = "100",
}

tile{
  layer = 0,
  x = 344,
  y = 16,
  width = 8,
  height = 8,
  pattern = "101",
}

tile{
  layer = 0,
  x = 336,
  y = 8,
  width = 8,
  height = 8,
  pattern = "100",
}

tile{
  layer = 0,
  x = 344,
  y = 8,
  width = 8,
  height = 8,
  pattern = "101",
}

tile{
  layer = 0,
  x = 368,
  y = 32,
  width = 8,
  height = 8,
  pattern = "101",
}

tile{
  layer = 0,
  x = 336,
  y = 32,
  width = 8,
  height = 8,
  pattern = "100",
}

tile{
  layer = 0,
  x = 344,
  y = 32,
  width = 8,
  height = 8,
  pattern = "101",
}

tile{
  layer = 0,
  x = 360,
  y = 56,
  width = 8,
  height = 8,
  pattern = "100",
}

tile{
  layer = 0,
  x = 352,
  y = 56,
  width = 8,
  height = 8,
  pattern = "101",
}

tile{
  layer = 0,
  x = 352,
  y = 48,
  width = 8,
  height = 8,
  pattern = "100",
}

tile{
  layer = 0,
  x = 360,
  y = 48,
  width = 8,
  height = 8,
  pattern = "101",
}

tile{
  layer = 0,
  x = 344,
  y = 72,
  width = 8,
  height = 8,
  pattern = "100",
}

tile{
  layer = 0,
  x = 336,
  y = 72,
  width = 8,
  height = 8,
  pattern = "101",
}

tile{
  layer = 0,
  x = 336,
  y = 64,
  width = 8,
  height = 8,
  pattern = "100",
}

tile{
  layer = 0,
  x = 344,
  y = 64,
  width = 8,
  height = 8,
  pattern = "101",
}

tile{
  layer = 0,
  x = 360,
  y = 72,
  width = 8,
  height = 8,
  pattern = "100",
}

tile{
  layer = 0,
  x = 352,
  y = 72,
  width = 8,
  height = 8,
  pattern = "101",
}

tile{
  layer = 0,
  x = 352,
  y = 64,
  width = 8,
  height = 8,
  pattern = "100",
}

tile{
  layer = 0,
  x = 360,
  y = 64,
  width = 8,
  height = 8,
  pattern = "101",
}

tile{
  layer = 0,
  x = 360,
  y = 88,
  width = 8,
  height = 8,
  pattern = "100",
}

tile{
  layer = 0,
  x = 352,
  y = 88,
  width = 8,
  height = 8,
  pattern = "101",
}

tile{
  layer = 0,
  x = 352,
  y = 80,
  width = 8,
  height = 8,
  pattern = "100",
}

tile{
  layer = 0,
  x = 360,
  y = 80,
  width = 8,
  height = 8,
  pattern = "101",
}

tile{
  layer = 0,
  x = 344,
  y = 88,
  width = 8,
  height = 8,
  pattern = "100",
}

tile{
  layer = 0,
  x = 336,
  y = 88,
  width = 8,
  height = 8,
  pattern = "101",
}

tile{
  layer = 0,
  x = 336,
  y = 80,
  width = 8,
  height = 8,
  pattern = "100",
}

tile{
  layer = 0,
  x = 344,
  y = 80,
  width = 8,
  height = 8,
  pattern = "101",
}

tile{
  layer = 0,
  x = 344,
  y = 104,
  width = 8,
  height = 8,
  pattern = "100",
}

tile{
  layer = 0,
  x = 336,
  y = 104,
  width = 8,
  height = 8,
  pattern = "101",
}

tile{
  layer = 0,
  x = 336,
  y = 96,
  width = 8,
  height = 8,
  pattern = "100",
}

tile{
  layer = 0,
  x = 344,
  y = 96,
  width = 8,
  height = 8,
  pattern = "101",
}

tile{
  layer = 0,
  x = 360,
  y = 104,
  width = 8,
  height = 8,
  pattern = "100",
}

tile{
  layer = 0,
  x = 352,
  y = 104,
  width = 8,
  height = 8,
  pattern = "101",
}

tile{
  layer = 0,
  x = 352,
  y = 96,
  width = 8,
  height = 8,
  pattern = "100",
}

tile{
  layer = 0,
  x = 360,
  y = 96,
  width = 8,
  height = 8,
  pattern = "101",
}

tile{
  layer = 0,
  x = 376,
  y = 104,
  width = 8,
  height = 8,
  pattern = "100",
}

tile{
  layer = 0,
  x = 368,
  y = 104,
  width = 8,
  height = 8,
  pattern = "101",
}

tile{
  layer = 0,
  x = 368,
  y = 96,
  width = 8,
  height = 8,
  pattern = "100",
}

tile{
  layer = 0,
  x = 376,
  y = 96,
  width = 8,
  height = 8,
  pattern = "101",
}

tile{
  layer = 0,
  x = 376,
  y = 120,
  width = 8,
  height = 8,
  pattern = "100",
}

tile{
  layer = 0,
  x = 368,
  y = 120,
  width = 8,
  height = 8,
  pattern = "101",
}

tile{
  layer = 0,
  x = 368,
  y = 112,
  width = 8,
  height = 8,
  pattern = "100",
}

tile{
  layer = 0,
  x = 376,
  y = 112,
  width = 8,
  height = 8,
  pattern = "101",
}

tile{
  layer = 0,
  x = 360,
  y = 120,
  width = 8,
  height = 8,
  pattern = "100",
}

tile{
  layer = 0,
  x = 352,
  y = 120,
  width = 8,
  height = 8,
  pattern = "101",
}

tile{
  layer = 0,
  x = 352,
  y = 112,
  width = 8,
  height = 8,
  pattern = "100",
}

tile{
  layer = 0,
  x = 360,
  y = 112,
  width = 8,
  height = 8,
  pattern = "101",
}

tile{
  layer = 0,
  x = 344,
  y = 120,
  width = 8,
  height = 8,
  pattern = "100",
}

tile{
  layer = 0,
  x = 376,
  y = 40,
  width = 8,
  height = 8,
  pattern = "101",
}

tile{
  layer = 0,
  x = 336,
  y = 112,
  width = 8,
  height = 8,
  pattern = "100",
}

tile{
  layer = 0,
  x = 344,
  y = 112,
  width = 8,
  height = 8,
  pattern = "101",
}

tile{
  layer = 0,
  x = 328,
  y = 88,
  width = 8,
  height = 8,
  pattern = "100",
}

tile{
  layer = 0,
  x = 320,
  y = 88,
  width = 8,
  height = 8,
  pattern = "101",
}

tile{
  layer = 0,
  x = 320,
  y = 80,
  width = 8,
  height = 8,
  pattern = "100",
}

tile{
  layer = 0,
  x = 328,
  y = 80,
  width = 8,
  height = 8,
  pattern = "101",
}

tile{
  layer = 0,
  x = 312,
  y = 88,
  width = 8,
  height = 8,
  pattern = "100",
}

tile{
  layer = 0,
  x = 304,
  y = 88,
  width = 8,
  height = 8,
  pattern = "101",
}

tile{
  layer = 0,
  x = 304,
  y = 80,
  width = 8,
  height = 8,
  pattern = "100",
}

tile{
  layer = 0,
  x = 312,
  y = 80,
  width = 8,
  height = 8,
  pattern = "101",
}

tile{
  layer = 0,
  x = 296,
  y = 88,
  width = 8,
  height = 8,
  pattern = "100",
}

tile{
  layer = 0,
  x = 288,
  y = 88,
  width = 8,
  height = 8,
  pattern = "101",
}

tile{
  layer = 0,
  x = 288,
  y = 80,
  width = 8,
  height = 8,
  pattern = "100",
}

tile{
  layer = 0,
  x = 296,
  y = 80,
  width = 8,
  height = 8,
  pattern = "101",
}

tile{
  layer = 0,
  x = 328,
  y = 104,
  width = 8,
  height = 8,
  pattern = "100",
}

tile{
  layer = 0,
  x = 368,
  y = 72,
  width = 8,
  height = 8,
  pattern = "101",
}

tile{
  layer = 0,
  x = 320,
  y = 96,
  width = 8,
  height = 8,
  pattern = "100",
}

tile{
  layer = 0,
  x = 328,
  y = 96,
  width = 8,
  height = 8,
  pattern = "101",
}

tile{
  layer = 0,
  x = 328,
  y = 48,
  width = 8,
  height = 8,
  pattern = "101",
}

tile{
  layer = 0,
  x = 328,
  y = 64,
  width = 8,
  height = 8,
  pattern = "101",
}

tile{
  layer = 0,
  x = 368,
  y = 40,
  width = 8,
  height = 8,
  pattern = "100",
}

tile{
  layer = 0,
  x = 376,
  y = 72,
  width = 8,
  height = 8,
  pattern = "100",
}

tile{
  layer = 0,
  x = 328,
  y = 72,
  width = 8,
  height = 8,
  pattern = "100",
}

tile{
  layer = 0,
  x = 328,
  y = 56,
  width = 8,
  height = 8,
  pattern = "100",
}

tile{
  layer = 0,
  x = 328,
  y = 40,
  width = 8,
  height = 8,
  pattern = "100",
}

tile{
  layer = 0,
  x = 272,
  y = 344,
  width = 8,
  height = 8,
  pattern = "126",
}

tile{
  layer = 0,
  x = 256,
  y = 360,
  width = 8,
  height = 8,
  pattern = "126",
}

tile{
  layer = 0,
  x = 232,
  y = 344,
  width = 8,
  height = 8,
  pattern = "127",
}

tile{
  layer = 0,
  x = 144,
  y = 432,
  width = 48,
  height = 8,
  pattern = "454",
}

tile{
  layer = 0,
  x = 144,
  y = 416,
  width = 48,
  height = 16,
  pattern = "67",
}

tile{
  layer = 0,
  x = 0,
  y = 464,
  width = 112,
  height = 8,
  pattern = "454",
}

tile{
  layer = 0,
  x = 0,
  y = 448,
  width = 112,
  height = 16,
  pattern = "67",
}

tile{
  layer = 0,
  x = 224,
  y = 464,
  width = 48,
  height = 8,
  pattern = "454",
}

tile{
  layer = 0,
  x = 224,
  y = 448,
  width = 48,
  height = 16,
  pattern = "67",
}

tile{
  layer = 0,
  x = 288,
  y = 448,
  width = 64,
  height = 8,
  pattern = "454",
}

tile{
  layer = 0,
  x = 288,
  y = 432,
  width = 64,
  height = 16,
  pattern = "67",
}

tile{
  layer = 0,
  x = 464,
  y = 0,
  width = 8,
  height = 48,
  pattern = "454",
}

tile{
  layer = 0,
  x = 400,
  y = 96,
  width = 16,
  height = 80,
  pattern = "454",
}

tile{
  layer = 0,
  x = 448,
  y = 224,
  width = 8,
  height = 16,
  pattern = "454",
}

tile{
  layer = 0,
  x = 384,
  y = 288,
  width = 16,
  height = 128,
  pattern = "454",
}

tile{
  layer = 0,
  x = 192,
  y = 432,
  width = 16,
  height = 16,
  pattern = "454",
}

tile{
  layer = 0,
  x = 192,
  y = 416,
  width = 16,
  height = 16,
  pattern = "68",
}

tile{
  layer = 0,
  x = 208,
  y = 448,
  width = 16,
  height = 16,
  pattern = "454",
}

tile{
  layer = 0,
  x = 208,
  y = 432,
  width = 16,
  height = 16,
  pattern = "68",
}

tile{
  layer = 0,
  x = 112,
  y = 432,
  width = 16,
  height = 16,
  pattern = "66",
}

tile{
  layer = 0,
  x = 112,
  y = 448,
  width = 16,
  height = 16,
  pattern = "454",
}

tile{
  layer = 0,
  x = 128,
  y = 416,
  width = 16,
  height = 16,
  pattern = "66",
}

tile{
  layer = 0,
  x = 128,
  y = 432,
  width = 16,
  height = 16,
  pattern = "454",
}

tile{
  layer = 0,
  x = 272,
  y = 432,
  width = 16,
  height = 16,
  pattern = "66",
}

tile{
  layer = 0,
  x = 272,
  y = 448,
  width = 16,
  height = 16,
  pattern = "454",
}

tile{
  layer = 0,
  x = 352,
  y = 416,
  width = 16,
  height = 16,
  pattern = "66",
}

tile{
  layer = 0,
  x = 352,
  y = 432,
  width = 16,
  height = 16,
  pattern = "454",
}

tile{
  layer = 0,
  x = 368,
  y = 400,
  width = 16,
  height = 16,
  pattern = "66",
}

tile{
  layer = 0,
  x = 368,
  y = 416,
  width = 16,
  height = 16,
  pattern = "454",
}

tile{
  layer = 0,
  x = 400,
  y = 256,
  width = 16,
  height = 16,
  pattern = "66",
}

tile{
  layer = 0,
  x = 400,
  y = 272,
  width = 16,
  height = 16,
  pattern = "454",
}

tile{
  layer = 0,
  x = 416,
  y = 240,
  width = 16,
  height = 16,
  pattern = "66",
}

tile{
  layer = 0,
  x = 416,
  y = 256,
  width = 16,
  height = 16,
  pattern = "454",
}

tile{
  layer = 0,
  x = 432,
  y = 224,
  width = 16,
  height = 16,
  pattern = "66",
}

tile{
  layer = 0,
  x = 432,
  y = 240,
  width = 16,
  height = 16,
  pattern = "454",
}

tile{
  layer = 0,
  x = 384,
  y = 272,
  width = 16,
  height = 16,
  pattern = "66",
}

tile{
  layer = 0,
  x = 416,
  y = 64,
  width = 16,
  height = 16,
  pattern = "66",
}

tile{
  layer = 0,
  x = 416,
  y = 80,
  width = 16,
  height = 16,
  pattern = "454",
}

tile{
  layer = 0,
  x = 432,
  y = 48,
  width = 16,
  height = 16,
  pattern = "66",
}

tile{
  layer = 0,
  x = 432,
  y = 64,
  width = 16,
  height = 16,
  pattern = "454",
}

tile{
  layer = 0,
  x = 448,
  y = 32,
  width = 16,
  height = 16,
  pattern = "66",
}

tile{
  layer = 0,
  x = 448,
  y = 48,
  width = 16,
  height = 16,
  pattern = "454",
}

tile{
  layer = 0,
  x = 400,
  y = 80,
  width = 16,
  height = 16,
  pattern = "66",
}

tile{
  layer = 0,
  x = 0,
  y = 376,
  width = 104,
  height = 8,
  pattern = "119",
}

tile{
  layer = 0,
  x = 216,
  y = 280,
  width = 64,
  height = 8,
  pattern = "119",
}

tile{
  layer = 0,
  x = 248,
  y = 128,
  width = 48,
  height = 8,
  pattern = "123",
}

tile{
  layer = 0,
  x = 368,
  y = 80,
  width = 16,
  height = 16,
  pattern = "1111",
}

tile{
  layer = 0,
  x = 336,
  y = 48,
  width = 16,
  height = 16,
  pattern = "1111",
}

tile{
  layer = 0,
  x = 272,
  y = 80,
  width = 16,
  height = 16,
  pattern = "1111",
}

tile{
  layer = 0,
  x = 288,
  y = 368,
  width = 16,
  height = 16,
  pattern = "1111",
}

tile{
  layer = 0,
  x = 320,
  y = 384,
  width = 16,
  height = 16,
  pattern = "1111",
}

tile{
  layer = 0,
  x = 336,
  y = 336,
  width = 16,
  height = 16,
  pattern = "1111",
}

tile{
  layer = 0,
  x = 176,
  y = 48,
  width = 16,
  height = 80,
  pattern = "1069",
}

tile{
  layer = 0,
  x = 96,
  y = 48,
  width = 16,
  height = 48,
  pattern = "1070",
}

tile{
  layer = 0,
  x = 336,
  y = 208,
  width = 16,
  height = 32,
  pattern = "976",
}

tile{
  layer = 0,
  x = 304,
  y = 160,
  width = 32,
  height = 32,
  pattern = "1057",
}

tile{
  layer = 0,
  x = 208,
  y = 128,
  width = 32,
  height = 32,
  pattern = "1057",
}

tile{
  layer = 0,
  x = 16,
  y = 208,
  width = 32,
  height = 32,
  pattern = "1059",
}

tile{
  layer = 0,
  x = 32,
  y = 80,
  width = 64,
  height = 32,
  pattern = "1059",
}

tile{
  layer = 0,
  x = 144,
  y = 432,
  width = 48,
  height = 8,
  pattern = "979",
}

tile{
  layer = 0,
  x = 160,
  y = 440,
  width = 16,
  height = 8,
  pattern = "984",
}

tile{
  layer = 0,
  x = 0,
  y = 464,
  width = 112,
  height = 8,
  pattern = "979",
}

tile{
  layer = 0,
  x = 0,
  y = 472,
  width = 112,
  height = 8,
  pattern = "984",
}

tile{
  layer = 0,
  x = 224,
  y = 464,
  width = 48,
  height = 8,
  pattern = "979",
}

tile{
  layer = 0,
  x = 224,
  y = 472,
  width = 48,
  height = 8,
  pattern = "984",
}

tile{
  layer = 0,
  x = 288,
  y = 448,
  width = 64,
  height = 8,
  pattern = "979",
}

tile{
  layer = 0,
  x = 304,
  y = 456,
  width = 48,
  height = 8,
  pattern = "984",
}

tile{
  layer = 0,
  x = 192,
  y = 264,
  width = 112,
  height = 8,
  pattern = "984",
}

tile{
  layer = 0,
  x = 192,
  y = 272,
  width = 128,
  height = 8,
  pattern = "978",
}

tile{
  layer = 0,
  x = 0,
  y = 360,
  width = 112,
  height = 8,
  pattern = "984",
}

tile{
  layer = 0,
  x = 0,
  y = 368,
  width = 128,
  height = 8,
  pattern = "978",
}

tile{
  layer = 0,
  x = -8,
  y = 352,
  width = 112,
  height = 8,
  pattern = "1072",
}

tile{
  layer = 0,
  x = 184,
  y = 256,
  width = 112,
  height = 8,
  pattern = "1072",
}

tile{
  layer = 0,
  x = 64,
  y = 0,
  width = 16,
  height = 64,
  pattern = "973",
}

tile{
  layer = 0,
  x = 48,
  y = 128,
  width = 16,
  height = 64,
  pattern = "973",
}

tile{
  layer = 0,
  x = 64,
  y = 64,
  width = 16,
  height = 16,
  pattern = "967",
}

tile{
  layer = 0,
  x = 80,
  y = 80,
  width = 16,
  height = 16,
  pattern = "967",
}

tile{
  layer = 0,
  x = 80,
  y = 32,
  width = 16,
  height = 48,
  pattern = "973",
}

tile{
  layer = 0,
  x = 48,
  y = 192,
  width = 16,
  height = 16,
  pattern = "967",
}

tile{
  layer = 0,
  x = 464,
  y = 0,
  width = 16,
  height = 48,
  pattern = "975",
}

tile{
  layer = 0,
  x = 480,
  y = 0,
  width = 16,
  height = 48,
  pattern = "976",
}

tile{
  layer = 0,
  x = 400,
  y = 112,
  width = 16,
  height = 48,
  pattern = "975",
}

tile{
  layer = 0,
  x = 416,
  y = 112,
  width = 16,
  height = 32,
  pattern = "976",
}

tile{
  layer = 0,
  x = 448,
  y = 224,
  width = 16,
  height = 16,
  pattern = "975",
}

tile{
  layer = 0,
  x = 464,
  y = 208,
  width = 16,
  height = 32,
  pattern = "976",
}

tile{
  layer = 0,
  x = 384,
  y = 304,
  width = 16,
  height = 112,
  pattern = "975",
}

tile{
  layer = 0,
  x = 0,
  y = 224,
  width = 16,
  height = 16,
  pattern = "958",
}

tile{
  layer = 0,
  x = 240,
  y = 136,
  width = 64,
  height = 8,
  pattern = "959",
}

tile{
  layer = 0,
  x = 240,
  y = 144,
  width = 64,
  height = 16,
  pattern = "958",
}

tile{
  layer = 0,
  x = 32,
  y = 240,
  width = 16,
  height = 16,
  pattern = "961",
}

tile{
  layer = 0,
  x = 16,
  y = 256,
  width = 16,
  height = 16,
  pattern = "961",
}

tile{
  layer = 0,
  x = 16,
  y = 240,
  width = 16,
  height = 16,
  pattern = "954",
}

tile{
  layer = 0,
  x = 48,
  y = 208,
  width = 16,
  height = 16,
  pattern = "954",
}

tile{
  layer = 0,
  x = 48,
  y = 224,
  width = 16,
  height = 16,
  pattern = "961",
}

tile{
  layer = 0,
  x = 400,
  y = 160,
  width = 16,
  height = 16,
  pattern = "964",
}

tile{
  layer = 0,
  x = 0,
  y = 272,
  width = 16,
  height = 16,
  pattern = "1071",
}

tile{
  layer = 0,
  x = 96,
  y = 96,
  width = 16,
  height = 16,
  pattern = "1068",
}

tile{
  layer = 0,
  x = 64,
  y = 208,
  width = 16,
  height = 16,
  pattern = "1068",
}

tile{
  layer = 0,
  x = 240,
  y = 192,
  width = 64,
  height = 16,
  pattern = "1071",
}

tile{
  layer = 0,
  x = 176,
  y = 128,
  width = 16,
  height = 16,
  pattern = "1067",
}

tile{
  layer = 0,
  x = 192,
  y = 112,
  width = 16,
  height = 16,
  pattern = "965",
}

tile{
  layer = 0,
  x = 448,
  y = 208,
  width = 16,
  height = 16,
  pattern = "969",
}

tile{
  layer = 0,
  x = 464,
  y = 192,
  width = 16,
  height = 16,
  pattern = "969",
}

tile{
  layer = 0,
  x = 416,
  y = 144,
  width = 16,
  height = 16,
  pattern = "965",
}

tile{
  layer = 0,
  x = 320,
  y = 208,
  width = 16,
  height = 16,
  pattern = "969",
}

tile{
  layer = 0,
  x = 336,
  y = 192,
  width = 16,
  height = 16,
  pattern = "969",
}

tile{
  layer = 0,
  x = 144,
  y = 440,
  width = 16,
  height = 8,
  pattern = "970",
}

tile{
  layer = 0,
  x = 176,
  y = 440,
  width = 16,
  height = 8,
  pattern = "971",
}

tile{
  layer = 0,
  x = 288,
  y = 456,
  width = 16,
  height = 8,
  pattern = "970",
}

tile{
  layer = 0,
  x = 176,
  y = 264,
  width = 16,
  height = 8,
  pattern = "970",
}

tile{
  layer = 0,
  x = 416,
  y = 176,
  width = 16,
  height = 16,
  pattern = "960",
}

tile{
  layer = 0,
  x = 416,
  y = 192,
  width = 16,
  height = 16,
  pattern = "963",
}

tile{
  layer = 0,
  x = 400,
  y = 176,
  width = 16,
  height = 16,
  pattern = "963",
}

tile{
  layer = 0,
  x = 432,
  y = 192,
  width = 16,
  height = 16,
  pattern = "960",
}

tile{
  layer = 0,
  x = 432,
  y = 208,
  width = 16,
  height = 16,
  pattern = "963",
}

tile{
  layer = 0,
  x = 432,
  y = 160,
  width = 16,
  height = 16,
  pattern = "960",
}

tile{
  layer = 0,
  x = 448,
  y = 176,
  width = 16,
  height = 16,
  pattern = "960",
}

tile{
  layer = 0,
  x = 432,
  y = 176,
  width = 16,
  height = 16,
  pattern = "952",
}

tile{
  layer = 0,
  x = 448,
  y = 192,
  width = 16,
  height = 16,
  pattern = "952",
}

tile{
  layer = 0,
  x = 416,
  y = 160,
  width = 16,
  height = 16,
  pattern = "952",
}

tile{
  layer = 0,
  x = 192,
  y = 128,
  width = 16,
  height = 16,
  pattern = "952",
}

tile{
  layer = 0,
  x = 224,
  y = 160,
  width = 16,
  height = 16,
  pattern = "952",
}

tile{
  layer = 0,
  x = 192,
  y = 144,
  width = 16,
  height = 16,
  pattern = "960",
}

tile{
  layer = 0,
  x = 208,
  y = 160,
  width = 16,
  height = 16,
  pattern = "960",
}

tile{
  layer = 0,
  x = 224,
  y = 176,
  width = 16,
  height = 16,
  pattern = "960",
}

tile{
  layer = 0,
  x = 320,
  y = 192,
  width = 16,
  height = 16,
  pattern = "952",
}

tile{
  layer = 0,
  x = 304,
  y = 192,
  width = 16,
  height = 16,
  pattern = "960",
}

tile{
  layer = 0,
  x = 336,
  y = 176,
  width = 16,
  height = 16,
  pattern = "955",
}

tile{
  layer = 0,
  x = 320,
  y = 160,
  width = 16,
  height = 16,
  pattern = "955",
}

tile{
  layer = 0,
  x = 304,
  y = 144,
  width = 16,
  height = 16,
  pattern = "955",
}

tile{
  layer = 0,
  x = 224,
  y = 128,
  width = 16,
  height = 16,
  pattern = "955",
}

tile{
  layer = 0,
  x = 208,
  y = 112,
  width = 16,
  height = 16,
  pattern = "955",
}

tile{
  layer = 0,
  x = 192,
  y = 0,
  width = 16,
  height = 32,
  pattern = "1069",
}

tile{
  layer = 0,
  x = 320,
  y = 224,
  width = 16,
  height = 16,
  pattern = "1069",
}

tile{
  layer = 0,
  x = 128,
  y = 304,
  width = 16,
  height = 32,
  pattern = "1069",
}

tile{
  layer = 0,
  x = 64,
  y = 144,
  width = 16,
  height = 64,
  pattern = "1070",
}

tile{
  layer = 0,
  x = 80,
  y = 0,
  width = 16,
  height = 32,
  pattern = "1070",
}

tile{
  layer = 0,
  x = 80,
  y = 112,
  width = 16,
  height = 16,
  pattern = "961",
}

tile{
  layer = 0,
  x = 64,
  y = 112,
  width = 16,
  height = 16,
  pattern = "954",
}

tile{
  layer = 0,
  x = 0,
  y = 240,
  width = 16,
  height = 32,
  pattern = "1058",
}

tile{
  layer = 0,
  x = 240,
  y = 160,
  width = 64,
  height = 32,
  pattern = "1058",
}

tile{
  layer = 0,
  x = 192,
  y = 32,
  width = 16,
  height = 80,
  pattern = "976",
}

tile{
  layer = 0,
  x = 320,
  y = 256,
  width = 16,
  height = 16,
  pattern = "986",
}

tile{
  layer = 0,
  x = 336,
  y = 240,
  width = 16,
  height = 16,
  pattern = "986",
}

tile{
  layer = 0,
  x = 304,
  y = 256,
  width = 16,
  height = 16,
  pattern = "985",
}

tile{
  layer = 0,
  x = 320,
  y = 240,
  width = 16,
  height = 16,
  pattern = "987",
}

tile{
  layer = 0,
  x = 160,
  y = 272,
  width = 16,
  height = 16,
  pattern = "987",
}

tile{
  layer = 0,
  x = 144,
  y = 288,
  width = 16,
  height = 16,
  pattern = "987",
}

tile{
  layer = 0,
  x = 160,
  y = 288,
  width = 16,
  height = 16,
  pattern = "986",
}

tile{
  layer = 0,
  x = 176,
  y = 272,
  width = 16,
  height = 16,
  pattern = "986",
}

tile{
  layer = 0,
  x = 128,
  y = 336,
  width = 16,
  height = 16,
  pattern = "987",
}

tile{
  layer = 0,
  x = 128,
  y = 352,
  width = 16,
  height = 16,
  pattern = "986",
}

tile{
  layer = 0,
  x = 144,
  y = 336,
  width = 16,
  height = 16,
  pattern = "986",
}

tile{
  layer = 0,
  x = 112,
  y = 352,
  width = 16,
  height = 16,
  pattern = "985",
}

tile{
  layer = 0,
  x = 144,
  y = 304,
  width = 16,
  height = 32,
  pattern = "976",
}

tile{
  layer = 0,
  x = 112,
  y = 464,
  width = 16,
  height = 16,
  pattern = "985",
}

tile{
  layer = 0,
  x = 272,
  y = 464,
  width = 16,
  height = 16,
  pattern = "985",
}

tile{
  layer = 0,
  x = 352,
  y = 448,
  width = 16,
  height = 16,
  pattern = "985",
}

tile{
  layer = 0,
  x = 112,
  y = 448,
  width = 16,
  height = 16,
  pattern = "988",
}

tile{
  layer = 0,
  x = 128,
  y = 432,
  width = 16,
  height = 16,
  pattern = "988",
}

tile{
  layer = 0,
  x = 272,
  y = 448,
  width = 16,
  height = 16,
  pattern = "988",
}

tile{
  layer = 0,
  x = 352,
  y = 432,
  width = 16,
  height = 16,
  pattern = "988",
}

tile{
  layer = 0,
  x = 368,
  y = 416,
  width = 16,
  height = 16,
  pattern = "988",
}

tile{
  layer = 0,
  x = 128,
  y = 448,
  width = 16,
  height = 16,
  pattern = "987",
}

tile{
  layer = 0,
  x = 368,
  y = 432,
  width = 16,
  height = 16,
  pattern = "987",
}

tile{
  layer = 0,
  x = 384,
  y = 416,
  width = 16,
  height = 16,
  pattern = "987",
}

tile{
  layer = 0,
  x = 432,
  y = 240,
  width = 16,
  height = 16,
  pattern = "988",
}

tile{
  layer = 0,
  x = 448,
  y = 240,
  width = 16,
  height = 16,
  pattern = "987",
}

tile{
  layer = 0,
  x = 416,
  y = 256,
  width = 16,
  height = 16,
  pattern = "988",
}

tile{
  layer = 0,
  x = 432,
  y = 256,
  width = 16,
  height = 16,
  pattern = "987",
}

tile{
  layer = 0,
  x = 400,
  y = 272,
  width = 16,
  height = 16,
  pattern = "988",
}

tile{
  layer = 0,
  x = 416,
  y = 272,
  width = 16,
  height = 16,
  pattern = "987",
}

tile{
  layer = 0,
  x = 384,
  y = 288,
  width = 16,
  height = 16,
  pattern = "988",
}

tile{
  layer = 0,
  x = 400,
  y = 288,
  width = 16,
  height = 16,
  pattern = "987",
}

tile{
  layer = 0,
  x = 448,
  y = 48,
  width = 16,
  height = 16,
  pattern = "988",
}

tile{
  layer = 0,
  x = 464,
  y = 48,
  width = 16,
  height = 16,
  pattern = "987",
}

tile{
  layer = 0,
  x = 432,
  y = 64,
  width = 16,
  height = 16,
  pattern = "988",
}

tile{
  layer = 0,
  x = 448,
  y = 64,
  width = 16,
  height = 16,
  pattern = "987",
}

tile{
  layer = 0,
  x = 416,
  y = 80,
  width = 16,
  height = 16,
  pattern = "988",
}

tile{
  layer = 0,
  x = 432,
  y = 80,
  width = 16,
  height = 16,
  pattern = "987",
}

tile{
  layer = 0,
  x = 400,
  y = 96,
  width = 16,
  height = 16,
  pattern = "988",
}

tile{
  layer = 0,
  x = 416,
  y = 96,
  width = 16,
  height = 16,
  pattern = "987",
}

tile{
  layer = 0,
  x = 256,
  y = 192,
  width = 8,
  height = 24,
  pattern = "4049",
}

tile{
  layer = 0,
  x = 264,
  y = 192,
  width = 16,
  height = 24,
  pattern = "4051",
}

tile{
  layer = 0,
  x = 280,
  y = 192,
  width = 8,
  height = 24,
  pattern = "4050",
}

tile{
  layer = 0,
  x = 280,
  y = 136,
  width = 8,
  height = 56,
  pattern = "261",
}

tile{
  layer = 0,
  x = 264,
  y = 136,
  width = 16,
  height = 56,
  pattern = "262",
}

tile{
  layer = 0,
  x = 256,
  y = 136,
  width = 8,
  height = 56,
  pattern = "260",
}

tile{
  layer = 0,
  x = 208,
  y = 448,
  width = 16,
  height = 16,
  pattern = "983",
}

tile{
  layer = 0,
  x = 208,
  y = 464,
  width = 16,
  height = 16,
  pattern = "982",
}

tile{
  layer = 0,
  x = 192,
  y = 432,
  width = 16,
  height = 16,
  pattern = "983",
}

tile{
  layer = 0,
  x = 192,
  y = 448,
  width = 16,
  height = 16,
  pattern = "980",
}

tile{
  layer = 0,
  x = 168,
  y = 304,
  width = 8,
  height = 32,
  pattern = "1012",
}

tile{
  layer = 0,
  x = 360,
  y = 192,
  width = 8,
  height = 48,
  pattern = "1012",
}

tile{
  layer = 0,
  x = 216,
  y = 0,
  width = 8,
  height = 112,
  pattern = "1012",
}

tile{
  layer = 0,
  x = 192,
  y = 288,
  width = 16,
  height = 8,
  pattern = "1010",
}

tile{
  layer = 0,
  x = 192,
  y = 280,
  width = 16,
  height = 8,
  pattern = "1009",
}

tile{
  layer = 0,
  x = 288,
  y = 288,
  width = 32,
  height = 8,
  pattern = "1010",
}

tile{
  layer = 0,
  x = 288,
  y = 280,
  width = 32,
  height = 8,
  pattern = "1009",
}

tile{
  layer = 0,
  x = 112,
  y = 384,
  width = 16,
  height = 8,
  pattern = "1010",
}

tile{
  layer = 0,
  x = 112,
  y = 376,
  width = 16,
  height = 8,
  pattern = "1009",
}

tile{
  layer = 0,
  x = 320,
  y = 272,
  width = 16,
  height = 16,
  pattern = "1013",
}

tile{
  layer = 0,
  x = 336,
  y = 256,
  width = 16,
  height = 16,
  pattern = "1013",
}

tile{
  layer = 0,
  x = 352,
  y = 240,
  width = 16,
  height = 16,
  pattern = "1013",
}

tile{
  layer = 0,
  x = 176,
  y = 288,
  width = 16,
  height = 16,
  pattern = "1013",
}

tile{
  layer = 0,
  x = 160,
  y = 336,
  width = 16,
  height = 16,
  pattern = "1013",
}

tile{
  layer = 0,
  x = 144,
  y = 352,
  width = 16,
  height = 16,
  pattern = "1013",
}

tile{
  layer = 0,
  x = 128,
  y = 368,
  width = 16,
  height = 16,
  pattern = "1013",
}

tile{
  layer = 0,
  x = 352,
  y = 176,
  width = 16,
  height = 16,
  pattern = "1016",
}

tile{
  layer = 0,
  x = 336,
  y = 160,
  width = 16,
  height = 16,
  pattern = "1016",
}

tile{
  layer = 0,
  x = 320,
  y = 144,
  width = 16,
  height = 16,
  pattern = "1016",
}

tile{
  layer = 0,
  x = 352,
  y = 168,
  width = 8,
  height = 8,
  pattern = "14795",
}

tile{
  layer = 0,
  x = 320,
  y = 136,
  width = 8,
  height = 8,
  pattern = "14795",
}

tile{
  layer = 0,
  x = 304,
  y = 128,
  width = 16,
  height = 16,
  pattern = "1016",
}

tile{
  layer = 0,
  x = 304,
  y = 120,
  width = 8,
  height = 8,
  pattern = "14795",
}

tile{
  layer = 0,
  x = 336,
  y = 152,
  width = 8,
  height = 8,
  pattern = "14795",
}

tile{
  layer = 0,
  x = 224,
  y = 112,
  width = 16,
  height = 16,
  pattern = "1016",
}

tile{
  layer = 0,
  x = 224,
  y = 104,
  width = 8,
  height = 8,
  pattern = "14795",
}

tile{
  layer = 0,
  x = 240,
  y = 120,
  width = 8,
  height = 8,
  pattern = "14795",
}

tile{
  layer = 0,
  x = 296,
  y = 128,
  width = 8,
  height = 8,
  pattern = "1020",
}

tile{
  layer = 0,
  x = 296,
  y = 120,
  width = 8,
  height = 8,
  pattern = "14796",
}

tile{
  layer = 0,
  x = 280,
  y = 280,
  width = 8,
  height = 8,
  pattern = "1017",
}

tile{
  layer = 0,
  x = 208,
  y = 280,
  width = 8,
  height = 8,
  pattern = "1023",
}

tile{
  layer = 0,
  x = 280,
  y = 288,
  width = 8,
  height = 8,
  pattern = "14794",
}

tile{
  layer = 0,
  x = 208,
  y = 288,
  width = 8,
  height = 8,
  pattern = "14793",
}

tile{
  layer = 0,
  x = 104,
  y = 376,
  width = 8,
  height = 8,
  pattern = "1017",
}

tile{
  layer = 0,
  x = 104,
  y = 384,
  width = 8,
  height = 8,
  pattern = "14794",
}

tile{
  layer = 0,
  x = 104,
  y = 352,
  width = 8,
  height = 8,
  pattern = "6",
}

tile{
  layer = 0,
  x = 296,
  y = 256,
  width = 8,
  height = 8,
  pattern = "6",
}

tile{
  layer = 0,
  x = 176,
  y = 256,
  width = 8,
  height = 8,
  pattern = "5",
}

tile{
  layer = 0,
  x = 104,
  y = 48,
  width = 8,
  height = 24,
  pattern = "943",
}

tile{
  layer = 0,
  x = 96,
  y = 32,
  width = 8,
  height = 24,
  pattern = "943",
}

tile{
  layer = 0,
  x = 176,
  y = 48,
  width = 8,
  height = 24,
  pattern = "944",
}

tile{
  layer = 0,
  x = 184,
  y = 32,
  width = 8,
  height = 24,
  pattern = "944",
}

tile{
  layer = 0,
  x = 176,
  y = 32,
  width = 16,
  height = 16,
  pattern = "939",
}

tile{
  layer = 0,
  x = 96,
  y = 32,
  width = 16,
  height = 16,
  pattern = "938",
}

tile{
  layer = 0,
  x = 320,
  y = 288,
  width = 8,
  height = 8,
  pattern = "14793",
}

tile{
  layer = 0,
  x = 336,
  y = 272,
  width = 8,
  height = 8,
  pattern = "14793",
}

tile{
  layer = 0,
  x = 352,
  y = 256,
  width = 8,
  height = 8,
  pattern = "14793",
}

tile{
  layer = 0,
  x = 176,
  y = 304,
  width = 8,
  height = 8,
  pattern = "14793",
}

tile{
  layer = 0,
  x = 160,
  y = 352,
  width = 8,
  height = 8,
  pattern = "14793",
}

tile{
  layer = 0,
  x = 144,
  y = 368,
  width = 8,
  height = 8,
  pattern = "14793",
}

tile{
  layer = 0,
  x = 128,
  y = 384,
  width = 8,
  height = 8,
  pattern = "14793",
}

tile{
  layer = 0,
  x = 240,
  y = 128,
  width = 8,
  height = 8,
  pattern = "1024",
}

tile{
  layer = 0,
  x = 208,
  y = 0,
  width = 8,
  height = 112,
  pattern = "977",
}

tile{
  layer = 0,
  x = 352,
  y = 192,
  width = 8,
  height = 48,
  pattern = "977",
}

tile{
  layer = 0,
  x = 160,
  y = 304,
  width = 8,
  height = 32,
  pattern = "977",
}

tile{
  layer = 0,
  x = 48,
  y = 112,
  width = 16,
  height = 16,
  pattern = "968",
}

tile{
  layer = 0,
  x = 64,
  y = 128,
  width = 16,
  height = 16,
  pattern = "968",
}

destination{
  name = "dest_vortex_river_hylia_south_0",
  layer = 0,
  x = 112,
  y = 221,
  direction = 3,
}

teletransporter{
  name = "vortex_river_south_0",
  layer = 0,
  x = 104,
  y = 192,
  width = 16,
  height = 16,
  destination_map = "A Link To The Past/Dark World/Overworld/sanctuary_lake",
  destination = "dest_vortex_santuary_lake_0",
  sprite = "entities/teletransporter_vortex",
  sound = "warp",
}

destructible{
  name = "bush_river_hylia_south_0",
  layer = 0,
  x = 344,
  y = 61,
  sprite = "destructibles/bush_yellow",
  destruction_sound = "bush",
  can_be_cut = true,
}

destructible{
  name = "bush_river_hylia_south_1",
  layer = 0,
  x = 280,
  y = 93,
  sprite = "destructibles/bush_yellow",
  destruction_sound = "bush",
  can_be_cut = true,
}

destructible{
  name = "bush_river_hylia_south_2",
  layer = 0,
  x = 376,
  y = 93,
  sprite = "destructibles/bush_yellow",
  destruction_sound = "bush",
  can_be_cut = true,
}

destructible{
  name = "bush_river_hylia_south_3",
  layer = 0,
  x = 344,
  y = 349,
  sprite = "destructibles/bush_yellow",
  destruction_sound = "bush",
  can_be_cut = true,
}

destructible{
  name = "bush_river_hylia_south_4",
  layer = 0,
  x = 296,
  y = 381,
  sprite = "destructibles/bush_yellow",
  destruction_sound = "bush",
  can_be_cut = true,
}

destructible{
  name = "bush_river_hylia_south_5",
  layer = 0,
  x = 328,
  y = 397,
  sprite = "destructibles/bush_yellow",
  destruction_sound = "bush",
  can_be_cut = true,
}

jumper{
  name = "jump_river_hylia_south_4",
  layer = 0,
  x = 216,
  y = 272,
  width = 64,
  height = 8,
  direction = 2,
  jump_length = 48,
}

jumper{
  name = "jump_river_hylia_south_5",
  layer = 0,
  x = 0,
  y = 368,
  width = 104,
  height = 8,
  direction = 2,
  jump_length = 48,
}

jumper{
  name = "jump_river_hylia_south_0",
  layer = 0,
  x = 248,
  y = 136,
  width = 16,
  height = 8,
  direction = 6,
  jump_length = 100,
}

jumper{
  name = "jump_river_hylia_south_1",
  layer = 0,
  x = 280,
  y = 136,
  width = 16,
  height = 8,
  direction = 6,
  jump_length = 100,
}

jumper{
  name = "jump_river_hylia_south_2",
  layer = 0,
  x = 112,
  y = 40,
  width = 64,
  height = 8,
  direction = 6,
  jump_length = 56,
}

wall{
  layer = 0,
  x = 112,
  y = 48,
  width = 64,
  height = 24,
  stops_hero = true,
  stops_npcs = true,
  stops_enemies = true,
  stops_blocks = true,
  stops_projectiles = true,
}

tile{
  layer = 1,
  x = 368,
  y = 448,
  width = 136,
  height = 56,
  pattern = "13892",
}

tile{
  layer = 1,
  x = 0,
  y = 0,
  width = 32,
  height = 208,
  pattern = "907",
}

tile{
  layer = 1,
  x = 32,
  y = 0,
  width = 24,
  height = 80,
  pattern = "13892",
}

tile{
  layer = 1,
  x = 32,
  y = 0,
  width = 16,
  height = 64,
  pattern = "907",
}

tile{
  layer = 1,
  x = 40,
  y = 112,
  width = 8,
  height = 80,
  pattern = "972",
}

tile{
  layer = 1,
  x = 32,
  y = 192,
  width = 16,
  height = 16,
  pattern = "1080",
}

tile{
  layer = 1,
  x = 32,
  y = 192,
  width = 8,
  height = 8,
  pattern = "1044",
}

tile{
  layer = 1,
  x = 16,
  y = 208,
  width = 16,
  height = 16,
  pattern = "1080",
}

tile{
  layer = 1,
  x = 16,
  y = 208,
  width = 8,
  height = 8,
  pattern = "1044",
}

tile{
  layer = 1,
  x = 24,
  y = 200,
  width = 8,
  height = 8,
  pattern = "1044",
}

tile{
  layer = 1,
  x = 0,
  y = 216,
  width = 16,
  height = 8,
  pattern = "959",
}

tile{
  layer = 1,
  x = 32,
  y = 120,
  width = 8,
  height = 72,
  pattern = "13892",
}

tile{
  layer = 1,
  x = 0,
  y = 208,
  width = 16,
  height = 8,
  pattern = "13892",
}

tile{
  layer = 1,
  x = 464,
  y = 256,
  width = 24,
  height = 24,
  pattern = "13892",
}

tile{
  layer = 1,
  x = 432,
  y = 288,
  width = 16,
  height = 16,
  pattern = "13892",
}

tile{
  layer = 1,
  x = 448,
  y = 272,
  width = 32,
  height = 32,
  pattern = "907",
}

tile{
  layer = 1,
  x = 464,
  y = 80,
  width = 16,
  height = 96,
  pattern = "13892",
}

tile{
  layer = 1,
  x = 440,
  y = 112,
  width = 8,
  height = 32,
  pattern = "13892",
}

tile{
  layer = 1,
  x = 480,
  y = 64,
  width = 32,
  height = 208,
  pattern = "907",
}

tile{
  layer = 1,
  x = 448,
  y = 96,
  width = 32,
  height = 64,
  pattern = "907",
}

tile{
  layer = 1,
  x = 496,
  y = 0,
  width = 16,
  height = 64,
  pattern = "13892",
}

tile{
  layer = 1,
  x = 136,
  y = 464,
  width = 72,
  height = 24,
  pattern = "13892",
}

tile{
  layer = 1,
  x = 128,
  y = 464,
  width = 16,
  height = 16,
  pattern = "1078",
}

tile{
  layer = 1,
  x = 296,
  y = 472,
  width = 72,
  height = 16,
  pattern = "13892",
}

tile{
  layer = 1,
  x = 0,
  y = 496,
  width = 336,
  height = 16,
  pattern = "907",
}

tile{
  layer = 1,
  x = 0,
  y = 488,
  width = 368,
  height = 16,
  pattern = "13892",
}

tile{
  layer = 1,
  x = 400,
  y = 304,
  width = 112,
  height = 144,
  pattern = "13892",
}

tile{
  layer = 1,
  x = 368,
  y = 448,
  width = 16,
  height = 16,
  pattern = "1078",
}

tile{
  layer = 1,
  x = 160,
  y = 448,
  width = 16,
  height = 8,
  pattern = "978",
}

tile{
  layer = 1,
  x = 0,
  y = 480,
  width = 128,
  height = 8,
  pattern = "978",
}

tile{
  layer = 1,
  x = 208,
  y = 480,
  width = 80,
  height = 8,
  pattern = "978",
}

tile{
  layer = 1,
  x = 304,
  y = 464,
  width = 64,
  height = 8,
  pattern = "978",
}

tile{
  layer = 1,
  x = 496,
  y = 0,
  width = 8,
  height = 48,
  pattern = "977",
}

tile{
  layer = 1,
  x = 432,
  y = 112,
  width = 8,
  height = 32,
  pattern = "977",
}

tile{
  layer = 1,
  x = 480,
  y = 192,
  width = 8,
  height = 48,
  pattern = "977",
}

tile{
  layer = 1,
  x = 416,
  y = 304,
  width = 8,
  height = 112,
  pattern = "977",
}

tile{
  layer = 1,
  x = 448,
  y = 160,
  width = 16,
  height = 16,
  pattern = "1081",
}

tile{
  layer = 1,
  x = 456,
  y = 160,
  width = 8,
  height = 8,
  pattern = "1045",
}

tile{
  layer = 1,
  x = 464,
  y = 176,
  width = 16,
  height = 16,
  pattern = "1081",
}

tile{
  layer = 1,
  x = 472,
  y = 176,
  width = 8,
  height = 8,
  pattern = "1045",
}

tile{
  layer = 1,
  x = 464,
  y = 168,
  width = 8,
  height = 8,
  pattern = "1045",
}

tile{
  layer = 1,
  x = 480,
  y = 184,
  width = 8,
  height = 8,
  pattern = "1045",
}

tile{
  layer = 1,
  x = 432,
  y = 144,
  width = 16,
  height = 16,
  pattern = "1081",
}

tile{
  layer = 1,
  x = 440,
  y = 144,
  width = 8,
  height = 8,
  pattern = "1045",
}

tile{
  layer = 1,
  x = 448,
  y = 152,
  width = 8,
  height = 8,
  pattern = "1045",
}

tile{
  layer = 1,
  x = 136,
  y = 472,
  width = 8,
  height = 8,
  pattern = "1042",
}

tile{
  layer = 1,
  x = 152,
  y = 456,
  width = 8,
  height = 8,
  pattern = "1042",
}

tile{
  layer = 1,
  x = 296,
  y = 472,
  width = 8,
  height = 8,
  pattern = "1042",
}

tile{
  layer = 1,
  x = 376,
  y = 456,
  width = 8,
  height = 8,
  pattern = "1042",
}

tile{
  layer = 1,
  x = 392,
  y = 440,
  width = 8,
  height = 8,
  pattern = "1042",
}

tile{
  layer = 1,
  x = 408,
  y = 424,
  width = 8,
  height = 8,
  pattern = "1042",
}

tile{
  layer = 1,
  x = 368,
  y = 464,
  width = 8,
  height = 8,
  pattern = "1042",
}

tile{
  layer = 1,
  x = 384,
  y = 448,
  width = 8,
  height = 8,
  pattern = "1042",
}

tile{
  layer = 1,
  x = 400,
  y = 432,
  width = 8,
  height = 8,
  pattern = "1042",
}

tile{
  layer = 1,
  x = 416,
  y = 416,
  width = 8,
  height = 8,
  pattern = "1042",
}

tile{
  layer = 1,
  x = 128,
  y = 480,
  width = 8,
  height = 8,
  pattern = "1042",
}

tile{
  layer = 1,
  x = 144,
  y = 464,
  width = 8,
  height = 8,
  pattern = "1042",
}

tile{
  layer = 1,
  x = 448,
  y = 256,
  width = 16,
  height = 16,
  pattern = "1078",
}

tile{
  layer = 1,
  x = 456,
  y = 264,
  width = 8,
  height = 8,
  pattern = "1042",
}

tile{
  layer = 1,
  x = 432,
  y = 272,
  width = 16,
  height = 16,
  pattern = "1078",
}

tile{
  layer = 1,
  x = 440,
  y = 280,
  width = 8,
  height = 8,
  pattern = "1042",
}

tile{
  layer = 1,
  x = 416,
  y = 288,
  width = 16,
  height = 16,
  pattern = "1078",
}

tile{
  layer = 1,
  x = 424,
  y = 296,
  width = 8,
  height = 8,
  pattern = "1042",
}

tile{
  layer = 1,
  x = 464,
  y = 240,
  width = 16,
  height = 16,
  pattern = "1078",
}

tile{
  layer = 1,
  x = 472,
  y = 248,
  width = 8,
  height = 8,
  pattern = "1042",
}

tile{
  layer = 1,
  x = 464,
  y = 256,
  width = 8,
  height = 8,
  pattern = "1042",
}

tile{
  layer = 1,
  x = 448,
  y = 272,
  width = 8,
  height = 8,
  pattern = "1042",
}

tile{
  layer = 1,
  x = 432,
  y = 288,
  width = 8,
  height = 8,
  pattern = "1042",
}

tile{
  layer = 1,
  x = 480,
  y = 240,
  width = 8,
  height = 8,
  pattern = "1042",
}

tile{
  layer = 1,
  x = 480,
  y = 48,
  width = 16,
  height = 16,
  pattern = "1078",
}

tile{
  layer = 1,
  x = 488,
  y = 56,
  width = 8,
  height = 8,
  pattern = "1042",
}

tile{
  layer = 1,
  x = 496,
  y = 48,
  width = 8,
  height = 8,
  pattern = "1042",
}

tile{
  layer = 1,
  x = 464,
  y = 64,
  width = 16,
  height = 16,
  pattern = "1078",
}

tile{
  layer = 1,
  x = 472,
  y = 72,
  width = 8,
  height = 8,
  pattern = "1042",
}

tile{
  layer = 1,
  x = 480,
  y = 64,
  width = 8,
  height = 8,
  pattern = "1042",
}

tile{
  layer = 1,
  x = 448,
  y = 80,
  width = 16,
  height = 16,
  pattern = "1078",
}

tile{
  layer = 1,
  x = 456,
  y = 88,
  width = 8,
  height = 8,
  pattern = "1042",
}

tile{
  layer = 1,
  x = 464,
  y = 80,
  width = 8,
  height = 8,
  pattern = "1042",
}

tile{
  layer = 1,
  x = 432,
  y = 96,
  width = 16,
  height = 16,
  pattern = "1078",
}

tile{
  layer = 1,
  x = 440,
  y = 104,
  width = 8,
  height = 8,
  pattern = "1042",
}

tile{
  layer = 1,
  x = 448,
  y = 96,
  width = 8,
  height = 8,
  pattern = "1042",
}

tile{
  layer = 1,
  x = 192,
  y = 464,
  width = 16,
  height = 16,
  pattern = "1079",
}

tile{
  layer = 1,
  x = 192,
  y = 472,
  width = 8,
  height = 8,
  pattern = "1043",
}

tile{
  layer = 1,
  x = 200,
  y = 480,
  width = 8,
  height = 8,
  pattern = "1043",
}

tile{
  layer = 1,
  x = 176,
  y = 448,
  width = 16,
  height = 16,
  pattern = "1079",
}

tile{
  layer = 1,
  x = 176,
  y = 456,
  width = 8,
  height = 8,
  pattern = "1043",
}

tile{
  layer = 1,
  x = 184,
  y = 464,
  width = 8,
  height = 8,
  pattern = "1043",
}

tile{
  layer = 1,
  x = 160,
  y = 480,
  width = 32,
  height = 16,
  pattern = "907",
}

tile{
  layer = 1,
  x = 320,
  y = 480,
  width = 48,
  height = 16,
  pattern = "907",
}

tile{
  layer = 1,
  x = 400,
  y = 304,
  width = 16,
  height = 112,
  pattern = "976",
}

tile{
  layer = 1,
  x = 384,
  y = 432,
  width = 16,
  height = 16,
  pattern = "1078",
}

tile{
  layer = 1,
  x = 400,
  y = 416,
  width = 16,
  height = 16,
  pattern = "1078",
}

tile{
  layer = 1,
  x = 160,
  y = 456,
  width = 16,
  height = 8,
  pattern = "13892",
}

tile{
  layer = 1,
  x = 288,
  y = 480,
  width = 8,
  height = 8,
  pattern = "1042",
}

tile{
  layer = 1,
  x = 472,
  y = 288,
  width = 24,
  height = 8,
  pattern = "129",
}

tile{
  layer = 1,
  x = 488,
  y = 272,
  width = 24,
  height = 8,
  pattern = "129",
}

tile{
  layer = 1,
  x = 496,
  y = 264,
  width = 16,
  height = 8,
  pattern = "129",
}

tile{
  layer = 1,
  x = 464,
  y = 296,
  width = 24,
  height = 8,
  pattern = "129",
}

tile{
  layer = 1,
  x = 480,
  y = 280,
  width = 24,
  height = 8,
  pattern = "129",
}

tile{
  layer = 1,
  x = 464,
  y = 304,
  width = 16,
  height = 104,
  pattern = "129",
}

tile{
  layer = 1,
  x = 432,
  y = 424,
  width = 24,
  height = 8,
  pattern = "129",
}

tile{
  layer = 1,
  x = 448,
  y = 408,
  width = 24,
  height = 8,
  pattern = "129",
}

tile{
  layer = 1,
  x = 456,
  y = 400,
  width = 16,
  height = 8,
  pattern = "129",
}

tile{
  layer = 1,
  x = 440,
  y = 416,
  width = 24,
  height = 8,
  pattern = "129",
}

tile{
  layer = 1,
  x = 384,
  y = 472,
  width = 24,
  height = 8,
  pattern = "129",
}

tile{
  layer = 1,
  x = 400,
  y = 456,
  width = 24,
  height = 8,
  pattern = "129",
}

tile{
  layer = 1,
  x = 408,
  y = 448,
  width = 16,
  height = 8,
  pattern = "129",
}

tile{
  layer = 1,
  x = 376,
  y = 480,
  width = 24,
  height = 8,
  pattern = "129",
}

tile{
  layer = 1,
  x = 392,
  y = 464,
  width = 24,
  height = 8,
  pattern = "129",
}

tile{
  layer = 1,
  x = 368,
  y = 488,
  width = 24,
  height = 8,
  pattern = "129",
}

tile{
  layer = 1,
  x = 352,
  y = 504,
  width = 24,
  height = 8,
  pattern = "129",
}

tile{
  layer = 1,
  x = 360,
  y = 496,
  width = 16,
  height = 8,
  pattern = "129",
}

tile{
  layer = 1,
  x = 0,
  y = 504,
  width = 448,
  height = 8,
  pattern = "13892",
}

tile{
  layer = 1,
  x = 424,
  y = 432,
  width = 24,
  height = 8,
  pattern = "129",
}

tile{
  layer = 1,
  x = 416,
  y = 440,
  width = 24,
  height = 8,
  pattern = "129",
}

tile{
  layer = 1,
  x = 144,
  y = 448,
  width = 16,
  height = 16,
  pattern = "1078",
}

tile{
  layer = 1,
  x = 288,
  y = 464,
  width = 16,
  height = 16,
  pattern = "1078",
}

tile{
  layer = 1,
  x = 304,
  y = 480,
  width = 8,
  height = 8,
  pattern = "126",
}

tile{
  layer = 1,
  x = 240,
  y = 496,
  width = 8,
  height = 8,
  pattern = "126",
}

tile{
  layer = 1,
  x = 144,
  y = 480,
  width = 8,
  height = 8,
  pattern = "126",
}

tile{
  layer = 1,
  x = 120,
  y = 496,
  width = 8,
  height = 8,
  pattern = "126",
}

tile{
  layer = 1,
  x = 112,
  y = 504,
  width = 8,
  height = 8,
  pattern = "126",
}

tile{
  layer = 1,
  x = 72,
  y = 504,
  width = 8,
  height = 8,
  pattern = "126",
}

tile{
  layer = 1,
  x = 64,
  y = 496,
  width = 8,
  height = 8,
  pattern = "126",
}

tile{
  layer = 1,
  x = 0,
  y = 496,
  width = 8,
  height = 8,
  pattern = "126",
}

tile{
  layer = 1,
  x = 8,
  y = 504,
  width = 8,
  height = 8,
  pattern = "127",
}

tile{
  layer = 1,
  x = 48,
  y = 496,
  width = 8,
  height = 8,
  pattern = "127",
}

tile{
  layer = 1,
  x = 64,
  y = 504,
  width = 8,
  height = 8,
  pattern = "127",
}

tile{
  layer = 1,
  x = 152,
  y = 488,
  width = 8,
  height = 8,
  pattern = "127",
}

tile{
  layer = 1,
  x = 160,
  y = 464,
  width = 8,
  height = 8,
  pattern = "127",
}

tile{
  layer = 1,
  x = 176,
  y = 496,
  width = 8,
  height = 8,
  pattern = "127",
}

tile{
  layer = 1,
  x = 112,
  y = 496,
  width = 8,
  height = 8,
  pattern = "127",
}

tile{
  layer = 1,
  x = 248,
  y = 504,
  width = 8,
  height = 8,
  pattern = "127",
}

tile{
  layer = 1,
  x = 312,
  y = 488,
  width = 8,
  height = 8,
  pattern = "127",
}

tile{
  layer = 1,
  x = 448,
  y = 352,
  width = 8,
  height = 8,
  pattern = "127",
}

tile{
  layer = 1,
  x = 16,
  y = 168,
  width = 8,
  height = 8,
  pattern = "127",
}

tile{
  layer = 1,
  x = 0,
  y = 160,
  width = 8,
  height = 8,
  pattern = "127",
}

tile{
  layer = 1,
  x = 0,
  y = 192,
  width = 8,
  height = 8,
  pattern = "127",
}

tile{
  layer = 1,
  x = 496,
  y = 128,
  width = 8,
  height = 8,
  pattern = "126",
}

tile{
  layer = 1,
  x = 504,
  y = 136,
  width = 8,
  height = 8,
  pattern = "127",
}

tile{
  layer = 1,
  x = 480,
  y = 128,
  width = 8,
  height = 8,
  pattern = "127",
}

tile{
  layer = 1,
  x = 480,
  y = 96,
  width = 8,
  height = 8,
  pattern = "127",
}

tile{
  layer = 1,
  x = 336,
  y = 496,
  width = 8,
  height = 8,
  pattern = "127",
}

tile{
  layer = 1,
  x = 464,
  y = 304,
  width = 16,
  height = 112,
  pattern = "454",
}

tile{
  layer = 1,
  x = 384,
  y = 480,
  width = 16,
  height = 16,
  pattern = "454",
}

tile{
  layer = 1,
  x = 368,
  y = 480,
  width = 16,
  height = 16,
  pattern = "66",
}

tile{
  layer = 1,
  x = 368,
  y = 496,
  width = 16,
  height = 16,
  pattern = "454",
}

tile{
  layer = 1,
  x = 352,
  y = 496,
  width = 16,
  height = 16,
  pattern = "66",
}

tile{
  layer = 1,
  x = 416,
  y = 448,
  width = 16,
  height = 16,
  pattern = "454",
}

tile{
  layer = 1,
  x = 400,
  y = 448,
  width = 16,
  height = 16,
  pattern = "66",
}

tile{
  layer = 1,
  x = 400,
  y = 464,
  width = 16,
  height = 16,
  pattern = "454",
}

tile{
  layer = 1,
  x = 384,
  y = 464,
  width = 16,
  height = 16,
  pattern = "66",
}

tile{
  layer = 1,
  x = 448,
  y = 416,
  width = 16,
  height = 16,
  pattern = "454",
}

tile{
  layer = 1,
  x = 432,
  y = 416,
  width = 16,
  height = 16,
  pattern = "66",
}

tile{
  layer = 1,
  x = 432,
  y = 432,
  width = 16,
  height = 16,
  pattern = "454",
}

tile{
  layer = 1,
  x = 416,
  y = 432,
  width = 16,
  height = 16,
  pattern = "66",
}

tile{
  layer = 1,
  x = 448,
  y = 400,
  width = 16,
  height = 16,
  pattern = "66",
}

tile{
  layer = 1,
  x = 480,
  y = 288,
  width = 16,
  height = 16,
  pattern = "454",
}

tile{
  layer = 1,
  x = 480,
  y = 272,
  width = 16,
  height = 16,
  pattern = "66",
}

tile{
  layer = 1,
  x = 496,
  y = 272,
  width = 16,
  height = 16,
  pattern = "454",
}

tile{
  layer = 1,
  x = 496,
  y = 256,
  width = 16,
  height = 16,
  pattern = "66",
}

tile{
  layer = 1,
  x = 464,
  y = 288,
  width = 16,
  height = 16,
  pattern = "66",
}

tile{
  layer = 1,
  x = 0,
  y = 112,
  width = 32,
  height = 16,
  pattern = "957",
}

tile{
  layer = 1,
  x = 32,
  y = 112,
  width = 16,
  height = 16,
  pattern = "962",
}

tile{
  layer = 1,
  x = 0,
  y = 96,
  width = 32,
  height = 16,
  pattern = "958",
}

tile{
  layer = 1,
  x = 464,
  y = 320,
  width = 16,
  height = 96,
  pattern = "975",
}

tile{
  layer = 1,
  x = 432,
  y = 432,
  width = 16,
  height = 16,
  pattern = "988",
}

tile{
  layer = 1,
  x = 448,
  y = 416,
  width = 16,
  height = 16,
  pattern = "988",
}

tile{
  layer = 1,
  x = 448,
  y = 432,
  width = 16,
  height = 16,
  pattern = "987",
}

tile{
  layer = 1,
  x = 464,
  y = 416,
  width = 16,
  height = 16,
  pattern = "987",
}

tile{
  layer = 1,
  x = 400,
  y = 464,
  width = 16,
  height = 16,
  pattern = "988",
}

tile{
  layer = 1,
  x = 416,
  y = 448,
  width = 16,
  height = 16,
  pattern = "988",
}

tile{
  layer = 1,
  x = 416,
  y = 464,
  width = 16,
  height = 16,
  pattern = "987",
}

tile{
  layer = 1,
  x = 432,
  y = 448,
  width = 16,
  height = 16,
  pattern = "987",
}

tile{
  layer = 1,
  x = 368,
  y = 496,
  width = 16,
  height = 16,
  pattern = "988",
}

tile{
  layer = 1,
  x = 384,
  y = 480,
  width = 16,
  height = 16,
  pattern = "988",
}

tile{
  layer = 1,
  x = 384,
  y = 496,
  width = 16,
  height = 16,
  pattern = "987",
}

tile{
  layer = 1,
  x = 400,
  y = 480,
  width = 16,
  height = 16,
  pattern = "987",
}

tile{
  layer = 1,
  x = 464,
  y = 304,
  width = 16,
  height = 16,
  pattern = "988",
}

tile{
  layer = 1,
  x = 480,
  y = 288,
  width = 16,
  height = 16,
  pattern = "988",
}

tile{
  layer = 1,
  x = 480,
  y = 304,
  width = 16,
  height = 16,
  pattern = "987",
}

tile{
  layer = 1,
  x = 496,
  y = 288,
  width = 16,
  height = 16,
  pattern = "987",
}

tile{
  layer = 1,
  x = 496,
  y = 272,
  width = 16,
  height = 16,
  pattern = "988",
}

tile{
  layer = 1,
  x = 480,
  y = 320,
  width = 16,
  height = 96,
  pattern = "976",
}

tile{
  layer = 1,
  x = 448,
  y = 448,
  width = 64,
  height = 64,
  pattern = "907",
}

tile{
  layer = 1,
  x = 32,
  y = 80,
  width = 16,
  height = 16,
  pattern = "1080",
}

tile{
  layer = 1,
  x = 48,
  y = 64,
  width = 16,
  height = 16,
  pattern = "1080",
}

tile{
  layer = 1,
  x = 32,
  y = 80,
  width = 8,
  height = 8,
  pattern = "1044",
}

tile{
  layer = 1,
  x = 40,
  y = 72,
  width = 8,
  height = 8,
  pattern = "1044",
}

tile{
  layer = 1,
  x = 48,
  y = 64,
  width = 8,
  height = 8,
  pattern = "1044",
}

tile{
  layer = 1,
  x = 0,
  y = 88,
  width = 32,
  height = 8,
  pattern = "959",
}

tile{
  layer = 1,
  x = 56,
  y = 0,
  width = 8,
  height = 64,
  pattern = "972",
}

tile{
  layer = 1,
  x = 464,
  y = 432,
  width = 16,
  height = 16,
  pattern = "1078",
}

tile{
  layer = 1,
  x = 480,
  y = 416,
  width = 16,
  height = 16,
  pattern = "1078",
}

tile{
  layer = 1,
  x = 472,
  y = 440,
  width = 8,
  height = 8,
  pattern = "1042",
}

tile{
  layer = 1,
  x = 488,
  y = 424,
  width = 8,
  height = 8,
  pattern = "1042",
}

tile{
  layer = 1,
  x = 480,
  y = 432,
  width = 8,
  height = 8,
  pattern = "1042",
}

tile{
  layer = 1,
  x = 496,
  y = 416,
  width = 8,
  height = 8,
  pattern = "1042",
}

tile{
  layer = 1,
  x = 432,
  y = 464,
  width = 16,
  height = 16,
  pattern = "1078",
}

tile{
  layer = 1,
  x = 448,
  y = 448,
  width = 16,
  height = 16,
  pattern = "1078",
}

tile{
  layer = 1,
  x = 440,
  y = 472,
  width = 8,
  height = 8,
  pattern = "1042",
}

tile{
  layer = 1,
  x = 456,
  y = 456,
  width = 8,
  height = 8,
  pattern = "1042",
}

tile{
  layer = 1,
  x = 448,
  y = 464,
  width = 8,
  height = 8,
  pattern = "1042",
}

tile{
  layer = 1,
  x = 464,
  y = 448,
  width = 8,
  height = 8,
  pattern = "1042",
}

tile{
  layer = 1,
  x = 400,
  y = 496,
  width = 16,
  height = 16,
  pattern = "1078",
}

tile{
  layer = 1,
  x = 416,
  y = 480,
  width = 16,
  height = 16,
  pattern = "1078",
}

tile{
  layer = 1,
  x = 408,
  y = 504,
  width = 8,
  height = 8,
  pattern = "1042",
}

tile{
  layer = 1,
  x = 424,
  y = 488,
  width = 8,
  height = 8,
  pattern = "1042",
}

tile{
  layer = 1,
  x = 416,
  y = 496,
  width = 8,
  height = 8,
  pattern = "1042",
}

tile{
  layer = 1,
  x = 432,
  y = 480,
  width = 8,
  height = 8,
  pattern = "1042",
}

tile{
  layer = 1,
  x = 496,
  y = 304,
  width = 16,
  height = 16,
  pattern = "1078",
}

tile{
  layer = 1,
  x = 504,
  y = 312,
  width = 8,
  height = 8,
  pattern = "1042",
}

tile{
  layer = 1,
  x = 496,
  y = 320,
  width = 8,
  height = 96,
  pattern = "977",
}

tile{
  layer = 1,
  x = 480,
  y = 448,
  width = 8,
  height = 8,
  pattern = "126",
}

tile{
  layer = 1,
  x = 496,
  y = 480,
  width = 8,
  height = 8,
  pattern = "126",
}

tile{
  layer = 1,
  x = 504,
  y = 488,
  width = 8,
  height = 8,
  pattern = "126",
}

tile{
  layer = 1,
  x = 472,
  y = 488,
  width = 8,
  height = 8,
  pattern = "126",
}

tile{
  layer = 1,
  x = 464,
  y = 480,
  width = 8,
  height = 8,
  pattern = "126",
}

tile{
  layer = 1,
  x = 432,
  y = 496,
  width = 8,
  height = 8,
  pattern = "126",
}

tile{
  layer = 1,
  x = 464,
  y = 488,
  width = 8,
  height = 8,
  pattern = "127",
}

tile{
  layer = 1,
  x = 440,
  y = 504,
  width = 8,
  height = 8,
  pattern = "127",
}

tile{
  layer = 1,
  x = 488,
  y = 456,
  width = 8,
  height = 8,
  pattern = "127",
}

tile{
  layer = 1,
  x = 496,
  y = 488,
  width = 8,
  height = 8,
  pattern = "127",
}

teletransporter{
  name = "border_river_hylia_south_west",
  layer = 2,
  x = -8,
  y = 0,
  width = 8,
  height = 512,
  transition = "scrolling",
  destination_map = "A Link To The Past/Dark World/Overworld/ice_lake",
  destination = "_side",
}

teletransporter{
  name = "border_river_hylia_south_north",
  layer = 2,
  x = 0,
  y = -8,
  width = 512,
  height = 8,
  transition = "scrolling",
  destination_map = "A Link To The Past/Dark World/Overworld/river_hylia_north",
  destination = "_side",
}

destination{
  name = "dest_secret",
  layer = 2,
  x = 256,
  y = 256,
  direction = 3,
}

