animation{
  name = "walking",
  src_image = "enemies/dark_world/lynel.png",
  frame_delay = 200,
  frame_to_loop_on = 0,
  directions = {
    { x = 32, y = 0, frame_width = 32, frame_height = 32, origin_x = 16, origin_y = 29, num_frames = 2 },
    { x = 32, y = 32, frame_width = 32, frame_height = 32, origin_x = 16, origin_y = 29, num_frames = 2 },
    { x = 32, y = 64, frame_width = 32, frame_height = 32, origin_x = 16, origin_y = 29, num_frames = 2 },
    { x = 32, y = 96, frame_width = 32, frame_height = 32, origin_x = 16, origin_y = 29, num_frames = 2 },
  },
}
animation{
  name = "hurt",
  src_image = "enemies/dark_world/lynel.png",
  frame_delay = 50,
  frame_to_loop_on = 0,
  directions = {
    { x = 96, y = 0, frame_width = 32, frame_height = 32, origin_x = 16, origin_y = 29, num_frames = 3 },
    { x = 96, y = 32, frame_width = 32, frame_height = 32, origin_x = 16, origin_y = 29, num_frames = 3 },
    { x = 96, y = 64, frame_width = 32, frame_height = 32, origin_x = 16, origin_y = 29, num_frames = 3 },
    { x = 96, y = 96, frame_width = 32, frame_height = 32, origin_x = 16, origin_y = 29, num_frames = 3 },
  },
}
animation{
  name = "immobilized",
  src_image = "enemies/dark_world/lynel.png",
  directions = {
    { x = 160, y = 0, frame_width = 32, frame_height = 32, origin_x = 16, origin_y = 29 },
    { x = 160, y = 32, frame_width = 32, frame_height = 32, origin_x = 16, origin_y = 29 },
    { x = 160, y = 64, frame_width = 32, frame_height = 32, origin_x = 16, origin_y = 29 },
    { x = 160, y = 96, frame_width = 32, frame_height = 32, origin_x = 16, origin_y = 29 },
  },
}
animation{
  name = "shaking",
  src_image = "enemies/dark_world/lynel.png",
  frame_delay = 50,
  frame_to_loop_on = 0,
  directions = {
    { x = 160, y = 0, frame_width = 32, frame_height = 32, origin_x = 16, origin_y = 29, num_frames = 2 },
    { x = 160, y = 32, frame_width = 32, frame_height = 32, origin_x = 16, origin_y = 29, num_frames = 2 },
    { x = 160, y = 64, frame_width = 32, frame_height = 32, origin_x = 16, origin_y = 29, num_frames = 2 },
    { x = 160, y = 96, frame_width = 32, frame_height = 32, origin_x = 16, origin_y = 29, num_frames = 2 },
  },
}
animation{
  name = "shooting",
  src_image = "enemies/dark_world/lynel.png",
  directions = {
    { x = 0, y = 0, frame_width = 32, frame_height = 32, origin_x = 16, origin_y = 29 },
    { x = 0, y = 32, frame_width = 32, frame_height = 32, origin_x = 16, origin_y = 29 },
    { x = 0, y = 64, frame_width = 32, frame_height = 32, origin_x = 16, origin_y = 29 },
    { x = 0, y = 96, frame_width = 32, frame_height = 32, origin_x = 16, origin_y = 29 },
  },
}
